test/tb_picorv32_3.vcd
$date
	Wed Jan 28 15:00:29 2026
$end
$version
	Icarus Verilog
$end
$timescale
	1ps
$end
$scope module tb_picorv32_3 $end
$var wire 1 ! trap $end
$var wire 4 " mem_wstrb [3:0] $end
$var wire 32 # mem_wdata [31:0] $end
$var wire 1 $ mem_valid $end
$var wire 1 % mem_instr $end
$var wire 32 & mem_addr [31:0] $end
$var reg 1 ' clk $end
$var reg 32 ( mem_rdata [31:0] $end
$var reg 1 ) mem_ready $end
$var reg 1 * resetn $end
$var reg 1 + trap_reported $end
$var integer 32 , cycle_count [31:0] $end
$var integer 32 - instr_count [31:0] $end
$var integer 32 . test_failed [31:0] $end
$var integer 32 / test_passed [31:0] $end
$scope module dut $end
$var wire 1 ' clk $end
$var wire 32 0 dbg_mem_addr [31:0] $end
$var wire 1 1 dbg_mem_instr $end
$var wire 32 2 dbg_mem_rdata [31:0] $end
$var wire 1 3 dbg_mem_ready $end
$var wire 1 4 dbg_mem_valid $end
$var wire 32 5 dbg_mem_wdata [31:0] $end
$var wire 4 6 dbg_mem_wstrb [3:0] $end
$var wire 1 7 instr_trap $end
$var wire 32 8 irq [31:0] $end
$var wire 1 9 launch_next_insn $end
$var wire 1 : mem_done $end
$var wire 1 ; mem_la_firstword $end
$var wire 1 < mem_la_firstword_xfer $end
$var wire 1 = mem_la_read $end
$var wire 1 > mem_la_use_prefetched_high_word $end
$var wire 1 ? mem_la_write $end
$var wire 32 @ mem_rdata [31:0] $end
$var wire 32 A mem_rdata_latched [31:0] $end
$var wire 1 ) mem_ready $end
$var wire 1 B mem_xfer $end
$var wire 32 C pcpi_div_rd [31:0] $end
$var wire 1 D pcpi_div_ready $end
$var wire 1 E pcpi_div_wait $end
$var wire 1 F pcpi_div_wr $end
$var wire 32 G pcpi_mul_rd [31:0] $end
$var wire 1 H pcpi_mul_ready $end
$var wire 1 I pcpi_mul_wait $end
$var wire 1 J pcpi_mul_wr $end
$var wire 32 K pcpi_rd [31:0] $end
$var wire 1 L pcpi_ready $end
$var wire 32 M pcpi_rs1 [31:0] $end
$var wire 32 N pcpi_rs2 [31:0] $end
$var wire 1 O pcpi_wait $end
$var wire 1 P pcpi_wr $end
$var wire 1 * resetn $end
$var wire 32 Q next_pc [31:0] $end
$var wire 32 R mem_rdata_latched_noshuffle [31:0] $end
$var wire 32 S mem_la_addr [31:0] $end
$var wire 1 T mem_busy $end
$var wire 1 U is_rdcycle_rdcycleh_rdinstr_rdinstrh $end
$var parameter 1 V BARREL_SHIFTER $end
$var parameter 1 W CATCH_ILLINSN $end
$var parameter 1 X CATCH_MISALIGN $end
$var parameter 1 Y COMPRESSED_ISA $end
$var parameter 1 Z ENABLE_COUNTERS $end
$var parameter 1 [ ENABLE_COUNTERS64 $end
$var parameter 1 \ ENABLE_DIV $end
$var parameter 1 ] ENABLE_FAST_MUL $end
$var parameter 1 ^ ENABLE_IRQ $end
$var parameter 1 _ ENABLE_IRQ_QREGS $end
$var parameter 1 ` ENABLE_IRQ_TIMER $end
$var parameter 1 a ENABLE_MUL $end
$var parameter 1 b ENABLE_PCPI $end
$var parameter 1 c ENABLE_REGS_16_31 $end
$var parameter 1 d ENABLE_REGS_DUALPORT $end
$var parameter 1 e ENABLE_TRACE $end
$var parameter 32 f LATCHED_IRQ $end
$var parameter 1 g LATCHED_MEM_RDATA $end
$var parameter 32 h MASKED_IRQ $end
$var parameter 32 i PROGADDR_IRQ $end
$var parameter 32 j PROGADDR_RESET $end
$var parameter 1 k REGS_INIT_ZERO $end
$var parameter 32 l STACKADDR $end
$var parameter 36 m TRACE_ADDR $end
$var parameter 36 n TRACE_BRANCH $end
$var parameter 36 o TRACE_IRQ $end
$var parameter 1 p TWO_CYCLE_ALU $end
$var parameter 1 q TWO_CYCLE_COMPARE $end
$var parameter 1 r TWO_STAGE_SHIFT $end
$var parameter 1 s WITH_PCPI $end
$var parameter 8 t cpu_state_exec $end
$var parameter 8 u cpu_state_fetch $end
$var parameter 8 v cpu_state_ld_rs1 $end
$var parameter 8 w cpu_state_ld_rs2 $end
$var parameter 8 x cpu_state_ldmem $end
$var parameter 8 y cpu_state_shift $end
$var parameter 8 z cpu_state_stmem $end
$var parameter 8 { cpu_state_trap $end
$var parameter 32 | irq_buserror $end
$var parameter 32 } irq_ebreak $end
$var parameter 32 ~ irq_timer $end
$var parameter 32 !" irqregs_offset $end
$var parameter 32 "" regfile_size $end
$var parameter 32 #" regindex_bits $end
$var reg 32 $" alu_add_sub [31:0] $end
$var reg 1 %" alu_eq $end
$var reg 1 &" alu_lts $end
$var reg 1 '" alu_ltu $end
$var reg 32 (" alu_out [31:0] $end
$var reg 1 )" alu_out_0 $end
$var reg 1 *" alu_out_0_q $end
$var reg 32 +" alu_out_q [31:0] $end
$var reg 32 ," alu_shl [31:0] $end
$var reg 32 -" alu_shr [31:0] $end
$var reg 1 ." alu_wait $end
$var reg 1 /" alu_wait_2 $end
$var reg 64 0" cached_ascii_instr [63:0] $end
$var reg 32 1" cached_insn_imm [31:0] $end
$var reg 32 2" cached_insn_opcode [31:0] $end
$var reg 5 3" cached_insn_rd [4:0] $end
$var reg 5 4" cached_insn_rs1 [4:0] $end
$var reg 5 5" cached_insn_rs2 [4:0] $end
$var reg 1 6" clear_prefetched_high_word $end
$var reg 1 7" clear_prefetched_high_word_q $end
$var reg 1 8" compressed_instr $end
$var reg 64 9" count_cycle [63:0] $end
$var reg 64 :" count_instr [63:0] $end
$var reg 8 ;" cpu_state [7:0] $end
$var reg 32 <" cpuregs_rs1 [31:0] $end
$var reg 32 =" cpuregs_rs2 [31:0] $end
$var reg 32 >" cpuregs_wrdata [31:0] $end
$var reg 1 ?" cpuregs_write $end
$var reg 32 @" current_pc [31:0] $end
$var reg 64 A" dbg_ascii_instr [63:0] $end
$var reg 128 B" dbg_ascii_state [127:0] $end
$var reg 32 C" dbg_insn_addr [31:0] $end
$var reg 32 D" dbg_insn_imm [31:0] $end
$var reg 32 E" dbg_insn_opcode [31:0] $end
$var reg 5 F" dbg_insn_rd [4:0] $end
$var reg 5 G" dbg_insn_rs1 [4:0] $end
$var reg 5 H" dbg_insn_rs2 [4:0] $end
$var reg 1 I" dbg_next $end
$var reg 32 J" dbg_rs1val [31:0] $end
$var reg 1 K" dbg_rs1val_valid $end
$var reg 32 L" dbg_rs2val [31:0] $end
$var reg 1 M" dbg_rs2val_valid $end
$var reg 1 N" dbg_valid_insn $end
$var reg 32 O" decoded_imm [31:0] $end
$var reg 32 P" decoded_imm_j [31:0] $end
$var reg 5 Q" decoded_rd [4:0] $end
$var reg 5 R" decoded_rs [4:0] $end
$var reg 5 S" decoded_rs1 [4:0] $end
$var reg 5 T" decoded_rs2 [4:0] $end
$var reg 1 U" decoder_pseudo_trigger $end
$var reg 1 V" decoder_pseudo_trigger_q $end
$var reg 1 W" decoder_trigger $end
$var reg 1 X" decoder_trigger_q $end
$var reg 1 Y" do_waitirq $end
$var reg 32 Z" eoi [31:0] $end
$var reg 1 [" instr_add $end
$var reg 1 \" instr_addi $end
$var reg 1 ]" instr_and $end
$var reg 1 ^" instr_andi $end
$var reg 1 _" instr_auipc $end
$var reg 1 `" instr_beq $end
$var reg 1 a" instr_bge $end
$var reg 1 b" instr_bgeu $end
$var reg 1 c" instr_blt $end
$var reg 1 d" instr_bltu $end
$var reg 1 e" instr_bne $end
$var reg 1 f" instr_ecall_ebreak $end
$var reg 1 g" instr_fence $end
$var reg 1 h" instr_getq $end
$var reg 1 i" instr_jal $end
$var reg 1 j" instr_jalr $end
$var reg 1 k" instr_lb $end
$var reg 1 l" instr_lbu $end
$var reg 1 m" instr_lh $end
$var reg 1 n" instr_lhu $end
$var reg 1 o" instr_lui $end
$var reg 1 p" instr_lw $end
$var reg 1 q" instr_maskirq $end
$var reg 1 r" instr_or $end
$var reg 1 s" instr_ori $end
$var reg 1 t" instr_rdcycle $end
$var reg 1 u" instr_rdcycleh $end
$var reg 1 v" instr_rdinstr $end
$var reg 1 w" instr_rdinstrh $end
$var reg 1 x" instr_retirq $end
$var reg 1 y" instr_sb $end
$var reg 1 z" instr_setq $end
$var reg 1 {" instr_sh $end
$var reg 1 |" instr_sll $end
$var reg 1 }" instr_slli $end
$var reg 1 ~" instr_slt $end
$var reg 1 !# instr_slti $end
$var reg 1 "# instr_sltiu $end
$var reg 1 ## instr_sltu $end
$var reg 1 $# instr_sra $end
$var reg 1 %# instr_srai $end
$var reg 1 &# instr_srl $end
$var reg 1 '# instr_srli $end
$var reg 1 (# instr_sub $end
$var reg 1 )# instr_sw $end
$var reg 1 *# instr_timer $end
$var reg 1 +# instr_waitirq $end
$var reg 1 ,# instr_xor $end
$var reg 1 -# instr_xori $end
$var reg 1 .# irq_active $end
$var reg 1 /# irq_delay $end
$var reg 32 0# irq_mask [31:0] $end
$var reg 32 1# irq_pending [31:0] $end
$var reg 2 2# irq_state [1:0] $end
$var reg 1 3# is_alu_reg_imm $end
$var reg 1 4# is_alu_reg_reg $end
$var reg 1 5# is_beq_bne_blt_bge_bltu_bgeu $end
$var reg 1 6# is_compare $end
$var reg 1 7# is_jalr_addi_slti_sltiu_xori_ori_andi $end
$var reg 1 8# is_lb_lh_lw_lbu_lhu $end
$var reg 1 9# is_lbu_lhu_lw $end
$var reg 1 :# is_lui_auipc_jal $end
$var reg 1 ;# is_lui_auipc_jal_jalr_addi_add_sub $end
$var reg 1 <# is_sb_sh_sw $end
$var reg 1 =# is_sll_srl_sra $end
$var reg 1 ># is_slli_srli_srai $end
$var reg 1 ?# is_slti_blt_slt $end
$var reg 1 @# is_sltiu_bltu_sltu $end
$var reg 1 A# last_mem_valid $end
$var reg 1 B# latched_branch $end
$var reg 1 C# latched_compr $end
$var reg 1 D# latched_is_lb $end
$var reg 1 E# latched_is_lh $end
$var reg 1 F# latched_is_lu $end
$var reg 5 G# latched_rd [4:0] $end
$var reg 1 H# latched_stalu $end
$var reg 1 I# latched_store $end
$var reg 1 J# latched_trace $end
$var reg 32 K# mem_addr [31:0] $end
$var reg 1 L# mem_do_prefetch $end
$var reg 1 M# mem_do_rdata $end
$var reg 1 N# mem_do_rinst $end
$var reg 1 O# mem_do_wdata $end
$var reg 1 % mem_instr $end
$var reg 1 P# mem_la_firstword_reg $end
$var reg 1 Q# mem_la_secondword $end
$var reg 32 R# mem_la_wdata [31:0] $end
$var reg 4 S# mem_la_wstrb [3:0] $end
$var reg 32 T# mem_rdata_q [31:0] $end
$var reg 32 U# mem_rdata_word [31:0] $end
$var reg 2 V# mem_state [1:0] $end
$var reg 1 $ mem_valid $end
$var reg 32 W# mem_wdata [31:0] $end
$var reg 2 X# mem_wordsize [1:0] $end
$var reg 4 Y# mem_wstrb [3:0] $end
$var reg 64 Z# new_ascii_instr [63:0] $end
$var reg 32 [# next_insn_opcode [31:0] $end
$var reg 32 \# next_irq_pending [31:0] $end
$var reg 32 ]# pcpi_insn [31:0] $end
$var reg 32 ^# pcpi_int_rd [31:0] $end
$var reg 1 _# pcpi_int_ready $end
$var reg 1 `# pcpi_int_wait $end
$var reg 1 a# pcpi_int_wr $end
$var reg 1 b# pcpi_timeout $end
$var reg 1 c# pcpi_valid $end
$var reg 1 d# prefetched_high_word $end
$var reg 64 e# q_ascii_instr [63:0] $end
$var reg 32 f# q_insn_imm [31:0] $end
$var reg 32 g# q_insn_opcode [31:0] $end
$var reg 5 h# q_insn_rd [4:0] $end
$var reg 5 i# q_insn_rs1 [4:0] $end
$var reg 5 j# q_insn_rs2 [4:0] $end
$var reg 32 k# reg_next_pc [31:0] $end
$var reg 32 l# reg_op1 [31:0] $end
$var reg 32 m# reg_op2 [31:0] $end
$var reg 32 n# reg_out [31:0] $end
$var reg 32 o# reg_pc [31:0] $end
$var reg 5 p# reg_sh [4:0] $end
$var reg 1 q# set_mem_do_rdata $end
$var reg 1 r# set_mem_do_rinst $end
$var reg 1 s# set_mem_do_wdata $end
$var reg 32 t# timer [31:0] $end
$var reg 36 u# trace_data [35:0] $end
$var reg 1 v# trace_valid $end
$var reg 1 ! trap $end
$scope begin genblk1 $end
$upscope $end
$scope begin genblk2 $end
$upscope $end
$scope begin genblk3 $end
$upscope $end
$scope task empty_statement $end
$upscope $end
$upscope $end
$scope begin $ivl_for_loop0 $end
$var integer 32 w# i [31:0] $end
$upscope $end
$scope begin $ivl_for_loop1 $end
$var integer 32 x# i [31:0] $end
$upscope $end
$scope begin $ivl_for_loop2 $end
$var integer 32 y# i [31:0] $end
$upscope $end
$scope begin $ivl_for_loop3 $end
$var integer 32 z# i [31:0] $end
$upscope $end
$scope task check_result $end
$var reg 32 {# expected [31:0] $end
$var reg 4 |# index [3:0] $end
$var reg 512 }# test_name [512:1] $end
$upscope $end
$upscope $end
$scope module tb_picorv32_3 $end
$scope module dut $end
$upscope $end
$upscope $end
$scope module tb_picorv32_3 $end
$scope module dut $end
$scope begin genblk1 $end
$upscope $end
$scope begin genblk2 $end
$upscope $end
$scope begin genblk3 $end
$upscope $end
$scope task empty_statement $end
$upscope $end
$upscope $end
$upscope $end
$scope module tb_picorv32_3 $end
$var reg 32 ~# \memory[0] [31:0] $end
$upscope $end
$scope module tb_picorv32_3 $end
$var reg 32 !$ \result_mem[0] [31:0] $end
$upscope $end
$scope module tb_picorv32_3 $end
$var reg 32 "$ \memory[1] [31:0] $end
$upscope $end
$scope module tb_picorv32_3 $end
$var reg 32 #$ \result_mem[1] [31:0] $end
$upscope $end
$scope module tb_picorv32_3 $end
$var reg 32 $$ \memory[2] [31:0] $end
$upscope $end
$scope module tb_picorv32_3 $end
$var reg 32 %$ \result_mem[2] [31:0] $end
$upscope $end
$scope module tb_picorv32_3 $end
$var reg 32 &$ \memory[3] [31:0] $end
$upscope $end
$scope module tb_picorv32_3 $end
$var reg 32 '$ \result_mem[3] [31:0] $end
$upscope $end
$scope module tb_picorv32_3 $end
$var reg 32 ($ \memory[4] [31:0] $end
$upscope $end
$scope module tb_picorv32_3 $end
$var reg 32 )$ \result_mem[4] [31:0] $end
$upscope $end
$scope module tb_picorv32_3 $end
$var reg 32 *$ \memory[5] [31:0] $end
$upscope $end
$scope module tb_picorv32_3 $end
$var reg 32 +$ \result_mem[5] [31:0] $end
$upscope $end
$scope module tb_picorv32_3 $end
$var reg 32 ,$ \memory[6] [31:0] $end
$upscope $end
$scope module tb_picorv32_3 $end
$var reg 32 -$ \result_mem[6] [31:0] $end
$upscope $end
$scope module tb_picorv32_3 $end
$var reg 32 .$ \memory[7] [31:0] $end
$upscope $end
$scope module tb_picorv32_3 $end
$var reg 32 /$ \result_mem[7] [31:0] $end
$upscope $end
$scope module tb_picorv32_3 $end
$var reg 32 0$ \memory[8] [31:0] $end
$upscope $end
$scope module tb_picorv32_3 $end
$var reg 32 1$ \result_mem[8] [31:0] $end
$upscope $end
$scope module tb_picorv32_3 $end
$var reg 32 2$ \memory[9] [31:0] $end
$upscope $end
$scope module tb_picorv32_3 $end
$var reg 32 3$ \result_mem[9] [31:0] $end
$upscope $end
$scope module tb_picorv32_3 $end
$var reg 32 4$ \memory[10] [31:0] $end
$upscope $end
$scope module tb_picorv32_3 $end
$var reg 32 5$ \result_mem[10] [31:0] $end
$upscope $end
$scope module tb_picorv32_3 $end
$var reg 32 6$ \memory[11] [31:0] $end
$upscope $end
$scope module tb_picorv32_3 $end
$var reg 32 7$ \result_mem[11] [31:0] $end
$upscope $end
$scope module tb_picorv32_3 $end
$var reg 32 8$ \memory[12] [31:0] $end
$upscope $end
$scope module tb_picorv32_3 $end
$var reg 32 9$ \result_mem[12] [31:0] $end
$upscope $end
$scope module tb_picorv32_3 $end
$var reg 32 :$ \memory[13] [31:0] $end
$upscope $end
$scope module tb_picorv32_3 $end
$var reg 32 ;$ \result_mem[13] [31:0] $end
$upscope $end
$scope module tb_picorv32_3 $end
$var reg 32 <$ \memory[14] [31:0] $end
$upscope $end
$scope module tb_picorv32_3 $end
$var reg 32 =$ \result_mem[14] [31:0] $end
$upscope $end
$scope module tb_picorv32_3 $end
$var reg 32 >$ \memory[15] [31:0] $end
$upscope $end
$scope module tb_picorv32_3 $end
$var reg 32 ?$ \result_mem[15] [31:0] $end
$upscope $end
$scope module tb_picorv32_3 $end
$var reg 32 @$ \memory[16] [31:0] $end
$upscope $end
$scope module tb_picorv32_3 $end
$var reg 32 A$ \memory[17] [31:0] $end
$upscope $end
$scope module tb_picorv32_3 $end
$var reg 32 B$ \memory[18] [31:0] $end
$upscope $end
$scope module tb_picorv32_3 $end
$var reg 32 C$ \memory[19] [31:0] $end
$upscope $end
$scope module tb_picorv32_3 $end
$var reg 32 D$ \memory[20] [31:0] $end
$upscope $end
$scope module tb_picorv32_3 $end
$var reg 32 E$ \memory[21] [31:0] $end
$upscope $end
$scope module tb_picorv32_3 $end
$var reg 32 F$ \memory[22] [31:0] $end
$upscope $end
$scope module tb_picorv32_3 $end
$var reg 32 G$ \memory[23] [31:0] $end
$upscope $end
$scope module tb_picorv32_3 $end
$var reg 32 H$ \memory[24] [31:0] $end
$upscope $end
$scope module tb_picorv32_3 $end
$var reg 32 I$ \memory[25] [31:0] $end
$upscope $end
$scope module tb_picorv32_3 $end
$var reg 32 J$ \memory[26] [31:0] $end
$upscope $end
$scope module tb_picorv32_3 $end
$var reg 32 K$ \memory[27] [31:0] $end
$upscope $end
$scope module tb_picorv32_3 $end
$var reg 32 L$ \memory[28] [31:0] $end
$upscope $end
$scope module tb_picorv32_3 $end
$var reg 32 M$ \memory[29] [31:0] $end
$upscope $end
$scope module tb_picorv32_3 $end
$var reg 32 N$ \memory[30] [31:0] $end
$upscope $end
$scope module tb_picorv32_3 $end
$var reg 32 O$ \memory[31] [31:0] $end
$upscope $end
$scope module tb_picorv32_3 $end
$scope module dut $end
$var reg 32 P$ \cpuregs[0] [31:0] $end
$upscope $end
$upscope $end
$scope module tb_picorv32_3 $end
$scope module dut $end
$var reg 32 Q$ \cpuregs[1] [31:0] $end
$upscope $end
$upscope $end
$scope module tb_picorv32_3 $end
$scope module dut $end
$var reg 32 R$ \cpuregs[2] [31:0] $end
$upscope $end
$upscope $end
$scope module tb_picorv32_3 $end
$scope module dut $end
$var reg 32 S$ \cpuregs[3] [31:0] $end
$upscope $end
$upscope $end
$scope module tb_picorv32_3 $end
$scope module dut $end
$var reg 32 T$ \cpuregs[4] [31:0] $end
$upscope $end
$upscope $end
$scope module tb_picorv32_3 $end
$scope module dut $end
$var reg 32 U$ \cpuregs[5] [31:0] $end
$upscope $end
$upscope $end
$scope module tb_picorv32_3 $end
$scope module dut $end
$var reg 32 V$ \cpuregs[6] [31:0] $end
$upscope $end
$upscope $end
$scope module tb_picorv32_3 $end
$scope module dut $end
$var reg 32 W$ \cpuregs[7] [31:0] $end
$upscope $end
$upscope $end
$scope module tb_picorv32_3 $end
$scope module dut $end
$var reg 32 X$ \cpuregs[8] [31:0] $end
$upscope $end
$upscope $end
$scope module tb_picorv32_3 $end
$scope module dut $end
$var reg 32 Y$ \cpuregs[9] [31:0] $end
$upscope $end
$upscope $end
$scope module tb_picorv32_3 $end
$scope module dut $end
$var reg 32 Z$ \cpuregs[10] [31:0] $end
$upscope $end
$upscope $end
$scope module tb_picorv32_3 $end
$scope module dut $end
$var reg 32 [$ \cpuregs[11] [31:0] $end
$upscope $end
$upscope $end
$scope module tb_picorv32_3 $end
$scope module dut $end
$var reg 32 \$ \cpuregs[12] [31:0] $end
$upscope $end
$upscope $end
$scope module tb_picorv32_3 $end
$scope module dut $end
$var reg 32 ]$ \cpuregs[13] [31:0] $end
$upscope $end
$upscope $end
$scope module tb_picorv32_3 $end
$scope module dut $end
$var reg 32 ^$ \cpuregs[14] [31:0] $end
$upscope $end
$upscope $end
$scope module tb_picorv32_3 $end
$scope module dut $end
$var reg 32 _$ \cpuregs[15] [31:0] $end
$upscope $end
$upscope $end
$scope module tb_picorv32_3 $end
$scope module dut $end
$var reg 32 `$ \cpuregs[16] [31:0] $end
$upscope $end
$upscope $end
$scope module tb_picorv32_3 $end
$scope module dut $end
$var reg 32 a$ \cpuregs[17] [31:0] $end
$upscope $end
$upscope $end
$scope module tb_picorv32_3 $end
$scope module dut $end
$var reg 32 b$ \cpuregs[18] [31:0] $end
$upscope $end
$upscope $end
$scope module tb_picorv32_3 $end
$scope module dut $end
$var reg 32 c$ \cpuregs[19] [31:0] $end
$upscope $end
$upscope $end
$scope module tb_picorv32_3 $end
$scope module dut $end
$var reg 32 d$ \cpuregs[20] [31:0] $end
$upscope $end
$upscope $end
$scope module tb_picorv32_3 $end
$scope module dut $end
$var reg 32 e$ \cpuregs[21] [31:0] $end
$upscope $end
$upscope $end
$scope module tb_picorv32_3 $end
$scope module dut $end
$var reg 32 f$ \cpuregs[22] [31:0] $end
$upscope $end
$upscope $end
$scope module tb_picorv32_3 $end
$scope module dut $end
$var reg 32 g$ \cpuregs[23] [31:0] $end
$upscope $end
$upscope $end
$scope module tb_picorv32_3 $end
$scope module dut $end
$var reg 32 h$ \cpuregs[24] [31:0] $end
$upscope $end
$upscope $end
$scope module tb_picorv32_3 $end
$scope module dut $end
$var reg 32 i$ \cpuregs[25] [31:0] $end
$upscope $end
$upscope $end
$scope module tb_picorv32_3 $end
$scope module dut $end
$var reg 32 j$ \cpuregs[26] [31:0] $end
$upscope $end
$upscope $end
$scope module tb_picorv32_3 $end
$scope module dut $end
$var reg 32 k$ \cpuregs[27] [31:0] $end
$upscope $end
$upscope $end
$scope module tb_picorv32_3 $end
$scope module dut $end
$var reg 32 l$ \cpuregs[28] [31:0] $end
$upscope $end
$upscope $end
$scope module tb_picorv32_3 $end
$scope module dut $end
$var reg 32 m$ \cpuregs[29] [31:0] $end
$upscope $end
$upscope $end
$scope module tb_picorv32_3 $end
$scope module dut $end
$var reg 32 n$ \cpuregs[30] [31:0] $end
$upscope $end
$upscope $end
$scope module tb_picorv32_3 $end
$scope module dut $end
$var reg 32 o$ \cpuregs[31] [31:0] $end
$upscope $end
$upscope $end
$enddefinitions $end
$comment Show the parameter values. $end
$dumpall
b101 #"
b100000 ""
b100000 !"
b0 ~
b1 }
b10 |
b10000000 {
b10 z
b100 y
b1 x
b10000 w
b100000 v
b1000000 u
b1000 t
0s
1r
0q
0p
b100000000000000000000000000000000000 o
b100000000000000000000000000000000 n
b1000000000000000000000000000000000 m
b11111111111111111111111111111111 l
0k
b0 j
b10000 i
b0 h
0g
b11111111111111111111111111111111 f
0e
1d
1c
0b
0a
1`
1_
0^
0]
0\
0[
1Z
0Y
1X
1W
0V
$end
#0
$dumpvars
bx o$
bx n$
bx m$
bx l$
bx k$
bx j$
bx i$
bx h$
bx g$
bx f$
bx e$
bx d$
bx c$
bx b$
bx a$
bx `$
bx _$
bx ^$
bx ]$
bx \$
bx [$
bx Z$
bx Y$
bx X$
bx W$
bx V$
bx U$
bx T$
bx S$
bx R$
bx Q$
bx P$
b10011 O$
b10011 N$
b10011 M$
b10011 L$
b10011 K$
b10011 J$
b10011 I$
b10011 H$
b10011 G$
b10011 F$
b10011 E$
b10011 D$
b10011 C$
b10011 B$
b10011 A$
b10011 @$
b0 ?$
b10011 >$
b0 =$
b10011 <$
b0 ;$
b10011 :$
b0 9$
b10011 8$
b0 7$
b10011 6$
b0 5$
b10011 4$
b0 3$
b10011 2$
b0 1$
b10011 0$
b0 /$
b10011 .$
b0 -$
b10011 ,$
b0 +$
b10011 *$
b0 )$
b10011 ($
b0 '$
b10011 &$
b0 %$
b10011 $$
b0 #$
b10011 "$
b0 !$
b10011 ~#
bx }#
bx |#
bx {#
b10000 z#
b1000000000000 y#
b100000 x#
b100000 w#
xv#
bx u#
bx t#
xs#
xr#
xq#
bx p#
bx o#
bx n#
bx m#
bx l#
bx k#
bx j#
bx i#
bx h#
bx g#
bx f#
bx e#
xd#
xc#
xb#
0a#
0`#
0_#
bx ^#
bx ]#
bx \#
bx [#
bx Z#
bx Y#
bx X#
bx W#
bx V#
bx U#
bx T#
bx S#
bx R#
xQ#
xP#
xO#
xN#
xM#
xL#
bx K#
xJ#
xI#
xH#
bx G#
xF#
xE#
xD#
xC#
xB#
xA#
x@#
x?#
x>#
x=#
x<#
x;#
x:#
x9#
x8#
x7#
x6#
x5#
x4#
x3#
bx 2#
bx 1#
bx 0#
x/#
x.#
x-#
x,#
x+#
x*#
x)#
x(#
x'#
x&#
x%#
x$#
x##
x"#
x!#
x~"
x}"
x|"
x{"
xz"
xy"
xx"
xw"
xv"
xu"
xt"
xs"
xr"
xq"
xp"
xo"
xn"
xm"
xl"
xk"
xj"
xi"
xh"
xg"
xf"
xe"
xd"
xc"
xb"
xa"
x`"
x_"
x^"
x]"
x\"
x["
bx Z"
xY"
xX"
xW"
xV"
xU"
bx T"
bx S"
bx R"
bx Q"
bx P"
bx O"
xN"
xM"
bx L"
xK"
bx J"
xI"
bx H"
bx G"
bx F"
bx E"
bx D"
bx C"
bx B"
bx A"
bx @"
x?"
bx >"
bx ="
bx <"
bx ;"
bx :"
bx 9"
x8"
x7"
06"
bx 5"
bx 4"
bx 3"
bx 2"
bx 1"
bx 0"
x/"
x."
bx -"
bx ,"
bx +"
x*"
x)"
bx ("
x'"
x&"
x%"
bx $"
xU
xT
bx00 S
bx R
bx Q
0P
0O
bx N
bx M
0L
b0 K
0J
0I
0H
bx G
0F
0E
0D
bx C
0B
bx A
b0 @
0?
0>
0=
0<
0;
0:
x9
b0 8
x7
bx 6
bx 5
x4
03
b0 2
x1
bx 0
b0 /
b0 .
b0 -
b0 ,
x+
0*
0)
b0 (
0'
bx &
x%
x$
bx #
bx "
x!
$end
#5000
09
b0 Z#
b110011001100101011101000110001101101000 B"
b0 Q
0?"
0A#
0P#
0d#
0Q#
04
0$
b0 V#
0N"
0g"
0]"
0r"
0$#
0&#
0,#
0##
0~"
0|"
0(#
0["
0^"
0s"
0-#
0"#
0!#
0\"
0b"
0d"
0a"
0c"
0e"
0`"
06#
05#
07"
b0 1#
0T
0O#
0M#
0N#
0L#
b1000000 ;"
b0 t#
b0 Z"
b0 2#
b11111111111111111111111111111111 0#
0/#
0.#
0b#
0c#
0D#
0E#
0F#
0J#
0B#
0H#
0I#
b0 :"
b0 k#
b0 o#
0v#
0Y"
0U"
0W"
b0 9"
0/"
0."
0!
0+
b0 \#
0s#
0q#
0r#
1'
#10000
0'
#15000
0V"
0X"
0@#
0?#
0I"
b0 \#
1'
#20000
0'
#25000
b0 \#
1'
#30000
0'
#35000
b0 \#
1'
#40000
0'
#45000
1=
b0 S
b0 U#
b1111 S#
bx 1#
b0 X#
1T
1N#
b1 9"
b1 ,
bx @"
bx \#
b10011 ,$
b10011 *$
b1100100010000000100011 ($
b10001000110111 &$
b1000001000000110110011 $$
b1000000000000100010011 "$
b100000000000010010011 ~#
1*
1'
#50000
0'
#55000
0=
b10 ,
b10 9"
b1 V#
11
1%
14
1$
b0 6
b0 "
b0 Y#
b0 0
b0 &
b0 K#
bx @"
1'
#60000
0'
#65000
1:
b100000000000010010011 A
b100000000000010010011 R
1B
b100000000000010010011 U#
1A#
b11 9"
13
1)
b100000000000010010011 2
b100000000000010010011 (
b100000000000010010011 @
b11 ,
bx @"
1'
#70000
0'
#75000
0:
0=
bx00 S
19
0B
b0 <"
b100 ,
03
0)
0T
0N#
1W"
b100 9"
08"
b1 T"
b0 S"
b1 Q"
b100000000000 P"
04#
13#
0<#
08#
0+#
0x"
0j"
0i"
0_"
0o"
b0 V#
04
0$
b100000000000010010011 [#
b100000000000010010011 T#
0A#
b1 -
bx @"
1'
#80000
0'
#85000
1=
b100 S
09
b1 F"
b1 H"
b0 G"
b1 D"
b100000000000010010011 E"
b1100001011001000110010001101001 A"
07
b1100001011001000110010001101001 Z#
b11011000110010001011111011100100111001100110001 B"
b100 Q
b0 C"
1N"
1I"
b1 O"
0=#
17#
0>#
0*#
0q"
0z"
0h"
0f"
0U
0w"
0v"
0u"
0t"
0%#
0'#
0}"
1\"
0)#
0{"
0y"
0n"
0l"
0p"
0m"
0k"
0;#
0:#
b100000 ;"
1T
1L#
b1 :"
b100 k#
0C#
b1 G#
1X"
0W"
b101 9"
0M"
0K"
b101 ,
bx @"
1'
#90000
0'
#95000
0=
b1 ("
b1100101011110000110010101100011 B"
b1 R#
b0 -"
b0 ,"
1'"
1&"
0%"
b1 $"
b110 ,
b1000 ;"
1N#
b1 N
b1 m#
1K"
b0 J"
b0 M
b0 l#
0X"
b110 9"
09#
1;#
b1 3"
b1 5"
b0 4"
b100000000000010010011 2"
b1 1"
b1100001011001000110010001101001 0"
0I"
b1 h#
b1 j#
b0 i#
b100000000000010010011 g#
b1 f#
b1100001011001000110010001101001 e#
b1 V#
14
1$
b100 0
b100 &
b100 K#
1'
#100000
0'
#105000
1:
b1000000000000100010011 A
b1000000000000100010011 R
1B
b110011001100101011101000110001101101000 B"
1?"
b1 >"
b1000000000000100010011 U#
1A#
b1000000 ;"
1H#
1I#
b1 n#
b111 9"
b1 +"
13
1)
b1000000000000100010011 2
b1000000000000100010011 (
b1000000000000100010011 @
b111 ,
1'
#110000
0'
#115000
0:
0=
b0 S
19
0B
bx >"
0?"
b1000 ,
03
0)
0T
0N#
0L#
0H#
0I#
b100 o#
1W"
b1000 9"
bx n#
b1 Q$
b10 T"
b10 Q"
b10 P"
b0 V#
04
0$
b1000000000000100010011 [#
b1000000000000100010011 T#
0A#
b10 -
bx @"
1'
#120000
0'
#125000
1=
b1000 S
09
b10 F"
b10 H"
b10 D"
b1000000000000100010011 E"
bx ("
b11011000110010001011111011100100111001100110001 B"
b1000 Q
b100 C"
1I"
b10 O"
0;#
b100000 ;"
1T
1L#
b10 :"
b1000 k#
b10 G#
1X"
0W"
b1001 9"
0K"
bx J"
b1001 ,
bx @"
1'
#130000
0'
