test/testbench.vcd
$date
	Wed Jan 28 13:55:18 2026
$end
$version
	Icarus Verilog
$end
$timescale
	1ps
$end
$scope module testbench $end
$var wire 1 ! trap $end
$var wire 4 " mem_wstrb [3:0] $end
$var wire 32 # mem_wdata [31:0] $end
$var wire 1 $ mem_valid $end
$var wire 1 % mem_instr $end
$var wire 32 & mem_addr [31:0] $end
$var reg 1 ' clk $end
$var reg 32 ( mem_rdata [31:0] $end
$var reg 1 ) mem_ready $end
$var reg 1 * resetn $end
$var integer 32 + cycle_count [31:0] $end
$var integer 32 , test_failed [31:0] $end
$var integer 32 - test_passed [31:0] $end
$scope module dut $end
$var wire 1 ' clk $end
$var wire 32 . dbg_mem_addr [31:0] $end
$var wire 1 / dbg_mem_instr $end
$var wire 32 0 dbg_mem_rdata [31:0] $end
$var wire 1 1 dbg_mem_ready $end
$var wire 1 2 dbg_mem_valid $end
$var wire 32 3 dbg_mem_wdata [31:0] $end
$var wire 4 4 dbg_mem_wstrb [3:0] $end
$var wire 1 5 instr_trap $end
$var wire 32 6 irq [31:0] $end
$var wire 1 7 launch_next_insn $end
$var wire 1 8 mem_done $end
$var wire 1 9 mem_la_firstword $end
$var wire 1 : mem_la_firstword_xfer $end
$var wire 1 ; mem_la_read $end
$var wire 1 < mem_la_use_prefetched_high_word $end
$var wire 1 = mem_la_write $end
$var wire 32 > mem_rdata [31:0] $end
$var wire 32 ? mem_rdata_latched [31:0] $end
$var wire 1 ) mem_ready $end
$var wire 1 @ mem_xfer $end
$var wire 32 A pcpi_div_rd [31:0] $end
$var wire 1 B pcpi_div_ready $end
$var wire 1 C pcpi_div_wait $end
$var wire 1 D pcpi_div_wr $end
$var wire 32 E pcpi_mul_rd [31:0] $end
$var wire 1 F pcpi_mul_ready $end
$var wire 1 G pcpi_mul_wait $end
$var wire 1 H pcpi_mul_wr $end
$var wire 32 I pcpi_rd [31:0] $end
$var wire 1 J pcpi_ready $end
$var wire 32 K pcpi_rs1 [31:0] $end
$var wire 32 L pcpi_rs2 [31:0] $end
$var wire 1 M pcpi_wait $end
$var wire 1 N pcpi_wr $end
$var wire 1 * resetn $end
$var wire 32 O next_pc [31:0] $end
$var wire 32 P mem_rdata_latched_noshuffle [31:0] $end
$var wire 32 Q mem_la_addr [31:0] $end
$var wire 1 R mem_busy $end
$var wire 1 S is_rdcycle_rdcycleh_rdinstr_rdinstrh $end
$var parameter 1 T BARREL_SHIFTER $end
$var parameter 1 U CATCH_ILLINSN $end
$var parameter 1 V CATCH_MISALIGN $end
$var parameter 1 W COMPRESSED_ISA $end
$var parameter 1 X ENABLE_COUNTERS $end
$var parameter 1 Y ENABLE_COUNTERS64 $end
$var parameter 1 Z ENABLE_DIV $end
$var parameter 1 [ ENABLE_FAST_MUL $end
$var parameter 1 \ ENABLE_IRQ $end
$var parameter 1 ] ENABLE_IRQ_QREGS $end
$var parameter 1 ^ ENABLE_IRQ_TIMER $end
$var parameter 1 _ ENABLE_MUL $end
$var parameter 1 ` ENABLE_PCPI $end
$var parameter 1 a ENABLE_REGS_16_31 $end
$var parameter 1 b ENABLE_REGS_DUALPORT $end
$var parameter 1 c ENABLE_TRACE $end
$var parameter 32 d LATCHED_IRQ $end
$var parameter 1 e LATCHED_MEM_RDATA $end
$var parameter 32 f MASKED_IRQ $end
$var parameter 32 g PROGADDR_IRQ $end
$var parameter 32 h PROGADDR_RESET $end
$var parameter 1 i REGS_INIT_ZERO $end
$var parameter 32 j STACKADDR $end
$var parameter 36 k TRACE_ADDR $end
$var parameter 36 l TRACE_BRANCH $end
$var parameter 36 m TRACE_IRQ $end
$var parameter 1 n TWO_CYCLE_ALU $end
$var parameter 1 o TWO_CYCLE_COMPARE $end
$var parameter 1 p TWO_STAGE_SHIFT $end
$var parameter 1 q WITH_PCPI $end
$var parameter 8 r cpu_state_exec $end
$var parameter 8 s cpu_state_fetch $end
$var parameter 8 t cpu_state_ld_rs1 $end
$var parameter 8 u cpu_state_ld_rs2 $end
$var parameter 8 v cpu_state_ldmem $end
$var parameter 8 w cpu_state_shift $end
$var parameter 8 x cpu_state_stmem $end
$var parameter 8 y cpu_state_trap $end
$var parameter 32 z irq_buserror $end
$var parameter 32 { irq_ebreak $end
$var parameter 32 | irq_timer $end
$var parameter 32 } irqregs_offset $end
$var parameter 32 ~ regfile_size $end
$var parameter 32 !" regindex_bits $end
$var reg 32 "" alu_add_sub [31:0] $end
$var reg 1 #" alu_eq $end
$var reg 1 $" alu_lts $end
$var reg 1 %" alu_ltu $end
$var reg 32 &" alu_out [31:0] $end
$var reg 1 '" alu_out_0 $end
$var reg 1 (" alu_out_0_q $end
$var reg 32 )" alu_out_q [31:0] $end
$var reg 32 *" alu_shl [31:0] $end
$var reg 32 +" alu_shr [31:0] $end
$var reg 1 ," alu_wait $end
$var reg 1 -" alu_wait_2 $end
$var reg 64 ." cached_ascii_instr [63:0] $end
$var reg 32 /" cached_insn_imm [31:0] $end
$var reg 32 0" cached_insn_opcode [31:0] $end
$var reg 5 1" cached_insn_rd [4:0] $end
$var reg 5 2" cached_insn_rs1 [4:0] $end
$var reg 5 3" cached_insn_rs2 [4:0] $end
$var reg 1 4" clear_prefetched_high_word $end
$var reg 1 5" clear_prefetched_high_word_q $end
$var reg 1 6" compressed_instr $end
$var reg 64 7" count_cycle [63:0] $end
$var reg 64 8" count_instr [63:0] $end
$var reg 8 9" cpu_state [7:0] $end
$var reg 32 :" cpuregs_rs1 [31:0] $end
$var reg 32 ;" cpuregs_rs2 [31:0] $end
$var reg 32 <" cpuregs_wrdata [31:0] $end
$var reg 1 =" cpuregs_write $end
$var reg 32 >" current_pc [31:0] $end
$var reg 64 ?" dbg_ascii_instr [63:0] $end
$var reg 128 @" dbg_ascii_state [127:0] $end
$var reg 32 A" dbg_insn_addr [31:0] $end
$var reg 32 B" dbg_insn_imm [31:0] $end
$var reg 32 C" dbg_insn_opcode [31:0] $end
$var reg 5 D" dbg_insn_rd [4:0] $end
$var reg 5 E" dbg_insn_rs1 [4:0] $end
$var reg 5 F" dbg_insn_rs2 [4:0] $end
$var reg 1 G" dbg_next $end
$var reg 32 H" dbg_rs1val [31:0] $end
$var reg 1 I" dbg_rs1val_valid $end
$var reg 32 J" dbg_rs2val [31:0] $end
$var reg 1 K" dbg_rs2val_valid $end
$var reg 1 L" dbg_valid_insn $end
$var reg 32 M" decoded_imm [31:0] $end
$var reg 32 N" decoded_imm_j [31:0] $end
$var reg 5 O" decoded_rd [4:0] $end
$var reg 5 P" decoded_rs [4:0] $end
$var reg 5 Q" decoded_rs1 [4:0] $end
$var reg 5 R" decoded_rs2 [4:0] $end
$var reg 1 S" decoder_pseudo_trigger $end
$var reg 1 T" decoder_pseudo_trigger_q $end
$var reg 1 U" decoder_trigger $end
$var reg 1 V" decoder_trigger_q $end
$var reg 1 W" do_waitirq $end
$var reg 32 X" eoi [31:0] $end
$var reg 1 Y" instr_add $end
$var reg 1 Z" instr_addi $end
$var reg 1 [" instr_and $end
$var reg 1 \" instr_andi $end
$var reg 1 ]" instr_auipc $end
$var reg 1 ^" instr_beq $end
$var reg 1 _" instr_bge $end
$var reg 1 `" instr_bgeu $end
$var reg 1 a" instr_blt $end
$var reg 1 b" instr_bltu $end
$var reg 1 c" instr_bne $end
$var reg 1 d" instr_ecall_ebreak $end
$var reg 1 e" instr_fence $end
$var reg 1 f" instr_getq $end
$var reg 1 g" instr_jal $end
$var reg 1 h" instr_jalr $end
$var reg 1 i" instr_lb $end
$var reg 1 j" instr_lbu $end
$var reg 1 k" instr_lh $end
$var reg 1 l" instr_lhu $end
$var reg 1 m" instr_lui $end
$var reg 1 n" instr_lw $end
$var reg 1 o" instr_maskirq $end
$var reg 1 p" instr_or $end
$var reg 1 q" instr_ori $end
$var reg 1 r" instr_rdcycle $end
$var reg 1 s" instr_rdcycleh $end
$var reg 1 t" instr_rdinstr $end
$var reg 1 u" instr_rdinstrh $end
$var reg 1 v" instr_retirq $end
$var reg 1 w" instr_sb $end
$var reg 1 x" instr_setq $end
$var reg 1 y" instr_sh $end
$var reg 1 z" instr_sll $end
$var reg 1 {" instr_slli $end
$var reg 1 |" instr_slt $end
$var reg 1 }" instr_slti $end
$var reg 1 ~" instr_sltiu $end
$var reg 1 !# instr_sltu $end
$var reg 1 "# instr_sra $end
$var reg 1 ## instr_srai $end
$var reg 1 $# instr_srl $end
$var reg 1 %# instr_srli $end
$var reg 1 &# instr_sub $end
$var reg 1 '# instr_sw $end
$var reg 1 (# instr_timer $end
$var reg 1 )# instr_waitirq $end
$var reg 1 *# instr_xor $end
$var reg 1 +# instr_xori $end
$var reg 1 ,# irq_active $end
$var reg 1 -# irq_delay $end
$var reg 32 .# irq_mask [31:0] $end
$var reg 32 /# irq_pending [31:0] $end
$var reg 2 0# irq_state [1:0] $end
$var reg 1 1# is_alu_reg_imm $end
$var reg 1 2# is_alu_reg_reg $end
$var reg 1 3# is_beq_bne_blt_bge_bltu_bgeu $end
$var reg 1 4# is_compare $end
$var reg 1 5# is_jalr_addi_slti_sltiu_xori_ori_andi $end
$var reg 1 6# is_lb_lh_lw_lbu_lhu $end
$var reg 1 7# is_lbu_lhu_lw $end
$var reg 1 8# is_lui_auipc_jal $end
$var reg 1 9# is_lui_auipc_jal_jalr_addi_add_sub $end
$var reg 1 :# is_sb_sh_sw $end
$var reg 1 ;# is_sll_srl_sra $end
$var reg 1 <# is_slli_srli_srai $end
$var reg 1 =# is_slti_blt_slt $end
$var reg 1 ># is_sltiu_bltu_sltu $end
$var reg 1 ?# last_mem_valid $end
$var reg 1 @# latched_branch $end
$var reg 1 A# latched_compr $end
$var reg 1 B# latched_is_lb $end
$var reg 1 C# latched_is_lh $end
$var reg 1 D# latched_is_lu $end
$var reg 5 E# latched_rd [4:0] $end
$var reg 1 F# latched_stalu $end
$var reg 1 G# latched_store $end
$var reg 1 H# latched_trace $end
$var reg 32 I# mem_addr [31:0] $end
$var reg 1 J# mem_do_prefetch $end
$var reg 1 K# mem_do_rdata $end
$var reg 1 L# mem_do_rinst $end
$var reg 1 M# mem_do_wdata $end
$var reg 1 % mem_instr $end
$var reg 1 N# mem_la_firstword_reg $end
$var reg 1 O# mem_la_secondword $end
$var reg 32 P# mem_la_wdata [31:0] $end
$var reg 4 Q# mem_la_wstrb [3:0] $end
$var reg 32 R# mem_rdata_q [31:0] $end
$var reg 32 S# mem_rdata_word [31:0] $end
$var reg 2 T# mem_state [1:0] $end
$var reg 1 $ mem_valid $end
$var reg 32 U# mem_wdata [31:0] $end
$var reg 2 V# mem_wordsize [1:0] $end
$var reg 4 W# mem_wstrb [3:0] $end
$var reg 64 X# new_ascii_instr [63:0] $end
$var reg 32 Y# next_insn_opcode [31:0] $end
$var reg 32 Z# next_irq_pending [31:0] $end
$var reg 32 [# pcpi_insn [31:0] $end
$var reg 32 \# pcpi_int_rd [31:0] $end
$var reg 1 ]# pcpi_int_ready $end
$var reg 1 ^# pcpi_int_wait $end
$var reg 1 _# pcpi_int_wr $end
$var reg 1 `# pcpi_timeout $end
$var reg 1 a# pcpi_valid $end
$var reg 1 b# prefetched_high_word $end
$var reg 64 c# q_ascii_instr [63:0] $end
$var reg 32 d# q_insn_imm [31:0] $end
$var reg 32 e# q_insn_opcode [31:0] $end
$var reg 5 f# q_insn_rd [4:0] $end
$var reg 5 g# q_insn_rs1 [4:0] $end
$var reg 5 h# q_insn_rs2 [4:0] $end
$var reg 32 i# reg_next_pc [31:0] $end
$var reg 32 j# reg_op1 [31:0] $end
$var reg 32 k# reg_op2 [31:0] $end
$var reg 32 l# reg_out [31:0] $end
$var reg 32 m# reg_pc [31:0] $end
$var reg 5 n# reg_sh [4:0] $end
$var reg 1 o# set_mem_do_rdata $end
$var reg 1 p# set_mem_do_rinst $end
$var reg 1 q# set_mem_do_wdata $end
$var reg 32 r# timer [31:0] $end
$var reg 36 s# trace_data [35:0] $end
$var reg 1 t# trace_valid $end
$var reg 1 ! trap $end
$scope begin genblk1 $end
$upscope $end
$scope begin genblk2 $end
$upscope $end
$scope begin genblk3 $end
$upscope $end
$scope task empty_statement $end
$upscope $end
$upscope $end
$scope begin $ivl_for_loop0 $end
$var integer 32 u# i [31:0] $end
$upscope $end
$scope begin $ivl_for_loop1 $end
$var integer 32 v# i [31:0] $end
$upscope $end
$scope task check_result $end
$var reg 32 w# expected [31:0] $end
$var reg 4 x# index [3:0] $end
$var reg 512 y# name [512:1] $end
$upscope $end
$upscope $end
$enddefinitions $end
$comment Show the parameter values. $end
$dumpall
b101 !"
b100000 ~
b100000 }
b0 |
b1 {
b10 z
b10000000 y
b10 x
b100 w
b1 v
b10000 u
b100000 t
b1000000 s
b1000 r
0q
1p
0o
0n
b100000000000000000000000000000000000 m
b100000000000000000000000000000000 l
b1000000000000000000000000000000000 k
b11111111111111111111111111111111 j
0i
b0 h
b10000 g
b0 f
0e
b11111111111111111111111111111111 d
0c
1b
1a
0`
0_
1^
1]
0\
0[
0Z
1Y
1X
0W
1V
1U
0T
$end
#0
$dumpvars
bx y#
bx x#
bx w#
b10000 v#
b1000000000000 u#
xt#
bx s#
bx r#
xq#
xp#
xo#
bx n#
bx m#
bx l#
bx k#
bx j#
bx i#
bx h#
bx g#
bx f#
bx e#
bx d#
bx c#
xb#
xa#
x`#
0_#
0^#
0]#
bx \#
bx [#
bx Z#
bx Y#
bx X#
bx W#
bx V#
bx U#
bx T#
bx S#
bx R#
bx Q#
bx P#
xO#
xN#
xM#
xL#
xK#
xJ#
bx I#
xH#
xG#
xF#
bx E#
xD#
xC#
xB#
xA#
x@#
x?#
x>#
x=#
x<#
x;#
x:#
x9#
x8#
x7#
x6#
x5#
x4#
x3#
x2#
x1#
bx 0#
bx /#
bx .#
x-#
x,#
x+#
x*#
x)#
x(#
x'#
x&#
x%#
x$#
x##
x"#
x!#
x~"
x}"
x|"
x{"
xz"
xy"
xx"
xw"
xv"
xu"
xt"
xs"
xr"
xq"
xp"
xo"
xn"
xm"
xl"
xk"
xj"
xi"
xh"
xg"
xf"
xe"
xd"
xc"
xb"
xa"
x`"
x_"
x^"
x]"
x\"
x["
xZ"
xY"
bx X"
xW"
xV"
xU"
xT"
xS"
bx R"
bx Q"
bx P"
bx O"
bx N"
bx M"
xL"
xK"
bx J"
xI"
bx H"
xG"
bx F"
bx E"
bx D"
bx C"
bx B"
bx A"
bx @"
bx ?"
bx >"
x="
bx <"
bx ;"
bx :"
bx 9"
bx 8"
bx 7"
x6"
x5"
04"
bx 3"
bx 2"
bx 1"
bx 0"
bx /"
bx ."
x-"
x,"
bx +"
bx *"
bx )"
x("
x'"
bx &"
x%"
x$"
x#"
bx ""
xS
xR
bx00 Q
bx P
bx O
0N
0M
bx L
bx K
0J
b0 I
0H
0G
0F
bx E
0D
0C
0B
bx A
0@
bx ?
b0 >
0=
0<
0;
0:
09
08
x7
b0 6
x5
bx 4
bx 3
x2
01
b0 0
x/
bx .
b0 -
b0 ,
b0 +
0*
0)
b0 (
0'
bx &
x%
x$
bx #
bx "
x!
$end
#5000
07
b0 X#
b110011001100101011101000110001101101000 @"
b0 O
0="
0?#
0N#
0b#
0O#
02
0$
b0 T#
0L"
0e"
0["
0p"
0"#
0$#
0*#
0!#
0|"
0z"
0&#
0Y"
0\"
0q"
0+#
0~"
0}"
0Z"
0`"
0b"
0_"
0a"
0c"
0^"
04#
03#
05"
b0 /#
0R
0M#
0K#
0L#
0J#
b1000000 9"
b0 r#
b0 X"
b0 0#
b11111111111111111111111111111111 .#
0-#
0,#
0`#
0a#
0B#
0C#
0D#
0H#
0@#
0F#
0G#
b0 8"
b0 i#
b0 m#
0t#
0W"
0S"
0U"
b0 7"
0-"
0,"
0!
b0 Z#
0q#
0o#
0p#
1'
#10000
0'
#15000
0T"
0V"
0>#
0=#
0G"
b0 Z#
1'
#20000
0'
#25000
b0 Z#
1'
#30000
0'
#35000
b0 Z#
1'
#40000
0'
#45000
1;
b0 Q
b0 S#
b1111 Q#
bx /#
b0 V#
1R
1L#
b1 7"
b1 +
bx >"
bx Z#
1*
1'
#50000
0'
#55000
0;
b10 +
b10 7"
b1 T#
1/
1%
12
1$
b0 4
b0 "
b0 W#
b0 .
b0 &
b0 I#
bx >"
1'
#60000
0'
#65000
18
b100000000000010010011 ?
b100000000000010010011 P
1@
b100000000000010010011 S#
1?#
b11 7"
11
1)
b100000000000010010011 0
b100000000000010010011 (
b100000000000010010011 >
b11 +
bx >"
1'
#70000
0'
#75000
08
0;
bx00 Q
17
0@
b0 :"
b100 +
01
0)
0R
0L#
1U"
b100 7"
06"
b1 R"
b0 Q"
b1 O"
b100000000000 N"
02#
11#
0:#
06#
0)#
0v"
0h"
0g"
0]"
0m"
b0 T#
02
0$
b100000000000010010011 Y#
b100000000000010010011 R#
0?#
bx >"
1'
#80000
0'
#85000
1;
b100 Q
07
b1 D"
b1 F"
b0 E"
b1 B"
b100000000000010010011 C"
b1100001011001000110010001101001 ?"
05
b1100001011001000110010001101001 X#
b11011000110010001011111011100100111001100110001 @"
b100 O
b0 A"
1L"
1G"
b1 M"
0;#
15#
0<#
0(#
0o"
0x"
0f"
0d"
0S
0u"
0t"
0s"
0r"
0##
0%#
0{"
1Z"
0'#
0y"
0w"
0l"
0j"
0n"
0k"
0i"
09#
08#
b100000 9"
1R
1J#
b1 8"
b100 i#
0A#
b1 E#
1V"
0U"
b101 7"
0K"
0I"
b101 +
bx >"
1'
#90000
0'
#95000
0;
b1 &"
b1100101011110000110010101100011 @"
b1 P#
b0 +"
b0 *"
1%"
1$"
0#"
b1 ""
b110 +
b1000 9"
1L#
b1 L
b1 k#
1I"
b0 H"
b0 K
b0 j#
0V"
b110 7"
07#
19#
b1 1"
b1 3"
b0 2"
b100000000000010010011 0"
b1 /"
b1100001011001000110010001101001 ."
0G"
b1 f#
b1 h#
b0 g#
b100000000000010010011 e#
b1 d#
b1100001011001000110010001101001 c#
b1 T#
12
1$
b100 .
b100 &
b100 I#
1'
#100000
0'
#105000
18
b1000000000000100010011 ?
b1000000000000100010011 P
1@
b110011001100101011101000110001101101000 @"
1="
b1 <"
b1000000000000100010011 S#
1?#
b1000000 9"
1F#
1G#
b1 l#
b111 7"
b1 )"
11
1)
b1000000000000100010011 0
b1000000000000100010011 (
b1000000000000100010011 >
b111 +
1'
#110000
0'
#115000
08
0;
b0 Q
17
0@
bx <"
0="
b1000 +
01
0)
0R
0L#
0J#
0F#
0G#
b100 m#
1U"
b1000 7"
bx l#
b10 R"
b10 O"
b10 N"
b0 T#
02
0$
b1000000000000100010011 Y#
b1000000000000100010011 R#
0?#
bx >"
1'
#120000
0'
#125000
1;
b1000 Q
07
b10 D"
b10 F"
b10 B"
b1000000000000100010011 C"
bx &"
b11011000110010001011111011100100111001100110001 @"
b1000 O
b100 A"
1G"
b10 M"
09#
b100000 9"
1R
1J#
b10 8"
b1000 i#
b10 E#
1V"
0U"
b1001 7"
0I"
bx H"
b1001 +
bx >"
1'
#130000
0'
#135000
0;
b1100101011110000110010101100011 @"
b10 P#
b10 ""
b10 &"
b1010 +
b1000 9"
1L#
1I"
b0 H"
b10 L
b10 k#
b0 K
b0 j#
0V"
b1010 7"
bx )"
19#
b10 1"
b10 3"
b1000000000000100010011 0"
b10 /"
0G"
b10 f#
b10 h#
b1000000000000100010011 e#
b10 d#
b1 T#
12
1$
b1000 .
b1000 &
b1000 I#
1'
#140000
0'
#145000
18
b1000001000000110110011 ?
b1000001000000110110011 P
1@
b110011001100101011101000110001101101000 @"
1="
b10 <"
b1000001000000110110011 S#
1?#
b1000000 9"
1F#
1G#
b110 l#
b1011 7"
b10 )"
11
1)
b1000001000000110110011 0
b1000001000000110110011 (
b1000001000000110110011 >
b1011 +
1'
#150000
0'
#155000
08
0;
b0 Q
17
0@
bx <"
0="
b10 ;"
b1 :"
b1100 +
01
0)
0R
0L#
0J#
0F#
0G#
b1000 m#
1U"
b1100 7"
bx l#
b1 Q"
b11 O"
b1000000000000010 N"
12#
01#
b0 T#
02
0$
b1000001000000110110011 Y#
b1000001000000110110011 R#
0?#
bx >"
1'
#160000
0'
#165000
1;
b1100 Q
07
b11 D"
b1 E"
b0x B"
b1000001000000110110011 C"
b11000010110010001100100 ?"
bx &"
b11000010110010001100100 X#
b11011000110010001011111011100100111001100110001 @"
b1100 O
b1000 A"
1G"
b0x M"
09#
05#
1Y"
0Z"
b100000 9"
1R
1J#
b11 8"
b1100 i#
b11 E#
1V"
0U"
b1101 7"
0I"
bx H"
b1101 +
bx >"
1'
#170000
0'
#175000
0;
b1100101011110000110010101100011 @"
b100 *"
b11 ""
b11 &"
b1110 +
b1000 9"
1L#
1K"
b10 J"
b10 n#
1I"
b1 H"
b10 L
b10 k#
b1 K
b1 j#
0V"
b1110 7"
bx )"
19#
b11 1"
b1 2"
b1000001000000110110011 0"
b0x /"
b11000010110010001100100 ."
0G"
b11 f#
b1 g#
b1000001000000110110011 e#
b0x d#
b11000010110010001100100 c#
b1 T#
12
1$
b1100 .
b1100 &
b1100 I#
1'
#180000
0'
#185000
18
b10001000110111 ?
b10001000110111 P
1@
b110011001100101011101000110001101101000 @"
1="
b11 <"
b10001000110111 S#
1?#
b1000000 9"
1F#
1G#
b1111 7"
b11 )"
bx n#
11
1)
b10001000110111 0
b10001000110111 (
b10001000110111 >
b1111 +
1'
#190000
0'
#195000
08
0;
b0 Q
17
0@
bx <"
0="
b0 ;"
b0 :"
b11000010110010001100100 X#
b10000 +
01
0)
0R
0L#
0J#
0F#
0G#
b1100 m#
1U"
b10000 7"
b0 R"
b0 Q"
b100 O"
b10000000000000 N"
02#
1m"
b0 T#
02
0$
b10001000110111 Y#
b10001000110111 R#
0?#
bx >"
1'
#200000
0'
#205000
1;
b10000 Q
07
b100 D"
b0 F"
b0 E"
b10000000000000 B"
b10001000110111 C"
b11011000111010101101001 ?"
bx &"
b11011000111010101101001 X#
b11011000110010001011111011100100111001100110001 @"
b10000 O
b1100 A"
1G"
b10000000000000 M"
09#
0Y"
18#
b100000 9"
1R
1J#
b100 8"
b10000 i#
b100 E#
1V"
0U"
b10001 7"
0K"
0I"
bx J"
bx H"
b10001 +
bx >"
1'
#210000
0'
#215000
0;
b1100101011110000110010101100011 @"
b10000000000000 P#
b0 *"
b10000000000000 ""
b10000000000000 &"
b10010 +
b1000 9"
1L#
b10000000000000 L
b10000000000000 k#
b0 K
b0 j#
0V"
b10010 7"
bx )"
19#
b100 1"
b0 3"
b0 2"
b10001000110111 0"
b10000000000000 /"
b11011000111010101101001 ."
0G"
b100 f#
b0 h#
b0 g#
b10001000110111 e#
b10000000000000 d#
b11011000111010101101001 c#
b1 T#
12
1$
b10000 .
b10000 &
b10000 I#
1'
#220000
0'
#225000
18
b1100100010000000100011 ?
b1100100010000000100011 P
1@
b110011001100101011101000110001101101000 @"
1="
b10000000000000 <"
b1100100010000000100011 S#
1?#
b1000000 9"
1F#
1G#
b10000000001100 l#
b10011 7"
b10000000000000 )"
11
1)
b1100100010000000100011 0
b1100100010000000100011 (
b1100100010000000100011 >
b10011 +
1'
#230000
0'
#235000
08
0;
b0 Q
17
0@
bx <"
0="
b11 ;"
b10000000000000 :"
b0 X#
15
b10100 +
01
0)
0R
0L#
0J#
0F#
0G#
b10000 m#
1U"
b10100 7"
bx l#
b11 R"
b100 Q"
b0 O"
b100010100000000010 N"
1:#
0m"
b0 T#
02
0$
b1100100010000000100011 Y#
b1100100010000000100011 R#
0?#
bx >"
1'
#240000
0'
#245000
1;
b10100 Q
07
b0 D"
b11 F"
b100 E"
b0 B"
b1100100010000000100011 C"
b111001101110111 ?"
b111001101110111 X#
05
bx &"
b11011000110010001011111011100100111001100110001 @"
b10100 O
b10000 A"
1G"
b0 M"
1'#
09#
08#
b100000 9"
1R
1J#
b101 8"
b10100 i#
b0 E#
1V"
0U"
b10101 7"
b10101 +
bx >"
1'
#250000
0'
#255000
0;
b111001101110100011011010110010101101101 @"
b11 P#
b10000000000 +"
b10000000000000000 *"
0%"
0$"
b10000000000011 ""
b10110 +
1L#
b10 9"
1K"
b11 J"
b11 n#
1I"
b10000000000000 H"
b11 L
b11 k#
b10000000000000 K
b10000000000000 j#
0V"
b10110 7"
bx )"
b0 1"
b11 3"
b100 2"
b1100100010000000100011 0"
b0 /"
b111001101110111 ."
0G"
b0 f#
b11 h#
b100 g#
b1100100010000000100011 e#
b0 d#
b111001101110111 c#
b1 T#
12
1$
b10100 .
b10100 &
b10100 I#
1'
#260000
0'
#265000
18
b10011 ?
b10011 P
1@
b10011 S#
1?#
b10111 7"
bx n#
11
1)
b10011 0
b10011 (
b10011 >
b10111 +
1'
#270000
0'
#275000
08
0;
b10000000000000 Q
0@
1=
b0 ;"
b0 :"
b11000 +
01
0)
1M#
1R
0L#
0J#
1U"
b11000 7"
b0 R"
b0 Q"
b0 N"
11#
0:#
b0 T#
02
0$
b10011 Y#
b10011 R#
0?#
1q#
1'
#280000
0'
#285000
0=
b1100001011001000110010001101001 X#
b10 T#
0/
0%
12
1$
b11 3
b11 #
b11 U#
b1111 4
b1111 "
b1111 W#
b10000000000000 .
b10000000000000 &
b10000000000000 I#
15#
1Z"
0'#
1V"
0U"
b11001 7"
b11001 +
0q#
1'
#290000
0'
#295000
18
b0 ?
b0 P
1@
b0 S#
b10000000000011 &"
b11010 +
11
1)
b0 0
b0 (
b0 >
0V"
b11010 7"
19#
b0 3"
b0 2"
b10011 0"
b1100001011001000110010001101001 ."
1?#
1'
#300000
0'
#305000
08
17
0@
b110011001100101011101000110001101101000 @"
0?#
b0 Y#
b0 R#
b0 T#
02
0$
0R
0M#
1S"
1U"
b1000000 9"
b11011 7"
b10000000000011 )"
01
0)
b11011 +
1'
#310000
0'
#315000
1;
b11000 Q
07
b11011000110010001011111011100100111001100110001 @"
b11000 O
b0 F"
b0 E"
b10011 C"
b1100001011001000110010001101001 ?"
b11100 +
b100000 9"
1R
1J#
b110 8"
b11000 i#
b10100 m#
1T"
0S"
1V"
0U"
b11100 7"
0K"
0I"
bx J"
bx H"
b10100 A"
1G"
bx >"
1'
#320000
0'
#325000
0;
b1100101011110000110010101100011 @"
b0 &"
b0 P#
b0 +"
b0 *"
1#"
b0 ""
b1 T#
1/
1%
12
1$
b0 4
b0 "
b0 W#
b11000 .
b11000 &
b11000 I#
b0 0"
0G"
b0 h#
b0 g#
b10011 e#
b1100001011001000110010001101001 c#
b1000 9"
1L#
1I"
b0 H"
b0 L
b0 k#
b0 K
b0 j#
0T"
0V"
b11101 7"
b11101 +
1'
#330000
0'
#335000
18
b10011 ?
b10011 P
1@
b10011 S#
b110011001100101011101000110001101101000 @"
1="
b0 <"
b11110 +
11
1)
b10011 0
b10011 (
b10011 >
b1000000 9"
1F#
1G#
b10100 l#
b11110 7"
b0 )"
1?#
1'
#340000
0'
#345000
08
b0 Q
17
0@
bx <"
0="
0?#
b10011 Y#
b10011 R#
b0 T#
02
0$
0R
0L#
0J#
0F#
0G#
b11000 m#
1U"
b11111 7"
bx l#
01
0)
b11111 +
bx >"
1'
#350000
0'
#355000
1;
b11100 Q
07
b11011000110010001011111011100100111001100110001 @"
b11100 O
bx &"
b100000 +
b100000 9"
1R
1J#
b111 8"
b11100 i#
1V"
0U"
b100000 7"
0I"
bx H"
09#
b11000 A"
1G"
bx >"
1'
#360000
0'
#365000
0;
b1100101011110000110010101100011 @"
b0 &"
b1 T#
12
1$
b11100 .
b11100 &
b11100 I#
b10011 0"
0G"
19#
b1000 9"
1L#
1I"
b0 H"
b0 L
b0 k#
b0 K
b0 j#
0V"
b100001 7"
bx )"
b100001 +
1'
#370000
0'
#375000
18
1@
b110011001100101011101000110001101101000 @"
1="
b0 <"
b100010 +
11
1)
b1000000 9"
1F#
1G#
b11000 l#
b100010 7"
b0 )"
1?#
1'
#380000
0'
#385000
08
b0 Q
17
0@
bx <"
0="
0?#
b0 T#
02
0$
0R
0L#
0J#
0F#
0G#
b11100 m#
1U"
b100011 7"
bx l#
01
0)
b100011 +
bx >"
1'
#390000
0'
#395000
1;
b100000 Q
07
b11011000110010001011111011100100111001100110001 @"
b100000 O
bx &"
b100100 +
b100000 9"
1R
1J#
b1000 8"
b100000 i#
1V"
0U"
b100100 7"
0I"
bx H"
09#
b11100 A"
1G"
bx >"
1'
#400000
0'
#405000
0;
b1100101011110000110010101100011 @"
b0 &"
b1 T#
12
1$
b100000 .
b100000 &
b100000 I#
0G"
19#
b1000 9"
1L#
1I"
b0 H"
b0 L
b0 k#
b0 K
b0 j#
0V"
b100101 7"
bx )"
b100101 +
1'
#410000
0'
#415000
18
1@
b110011001100101011101000110001101101000 @"
1="
b0 <"
b100110 +
11
1)
b1000000 9"
1F#
1G#
b11100 l#
b100110 7"
b0 )"
1?#
1'
#420000
0'
#425000
08
b0 Q
17
0@
bx <"
0="
0?#
b0 T#
02
0$
0R
0L#
0J#
0F#
0G#
b100000 m#
1U"
b100111 7"
bx l#
01
0)
b100111 +
bx >"
1'
#430000
0'
#435000
1;
b100100 Q
07
b11011000110010001011111011100100111001100110001 @"
b100100 O
bx &"
b101000 +
b100000 9"
1R
1J#
b1001 8"
b100100 i#
1V"
0U"
b101000 7"
0I"
bx H"
09#
b100000 A"
1G"
bx >"
1'
#440000
0'
#445000
0;
b1100101011110000110010101100011 @"
b0 &"
b1 T#
12
1$
b100100 .
b100100 &
b100100 I#
0G"
19#
b1000 9"
1L#
1I"
b0 H"
b0 L
b0 k#
b0 K
b0 j#
0V"
b101001 7"
bx )"
b101001 +
1'
#450000
0'
#455000
18
1@
b110011001100101011101000110001101101000 @"
1="
b0 <"
b101010 +
11
1)
b1000000 9"
1F#
1G#
b100000 l#
b101010 7"
b0 )"
1?#
1'
#460000
0'
