test/alu/wave.vcd
$date
	Thu Jan 29 12:27:58 2026
$end
$version
	Icarus Verilog
$end
$timescale
	1ps
$end
$scope module tb_picorv32_alu $end
$var wire 4 ! mem_wstrb [3:0] $end
$var wire 32 " mem_wdata [31:0] $end
$var wire 1 # mem_valid $end
$var wire 1 $ mem_instr $end
$var wire 32 % mem_addr [31:0] $end
$var reg 1 & clk $end
$var reg 32 ' cycle_count [31:0] $end
$var reg 32 ( expected_results_0 [31:0] $end
$var reg 32 ) expected_results_1 [31:0] $end
$var reg 32 * expected_results_10 [31:0] $end
$var reg 32 + expected_results_2 [31:0] $end
$var reg 32 , expected_results_3 [31:0] $end
$var reg 32 - expected_results_4 [31:0] $end
$var reg 32 . expected_results_5 [31:0] $end
$var reg 32 / expected_results_6 [31:0] $end
$var reg 32 0 expected_results_7 [31:0] $end
$var reg 32 1 expected_results_8 [31:0] $end
$var reg 32 2 expected_results_9 [31:0] $end
$var reg 32 3 fail_count [31:0] $end
$var reg 32 4 mem_rdata [31:0] $end
$var reg 1 5 mem_ready $end
$var reg 32 6 pass_count [31:0] $end
$var reg 1 7 resetn $end
$var reg 32 8 test_count [31:0] $end
$var integer 32 9 i [31:0] $end
$var integer 32 : test_num [31:0] $end
$var integer 32 ; timeout [31:0] $end
$scope module cpu $end
$var wire 1 & clk $end
$var wire 32 < dbg_mem_addr [31:0] $end
$var wire 1 = dbg_mem_instr $end
$var wire 32 > dbg_mem_rdata [31:0] $end
$var wire 1 ? dbg_mem_ready $end
$var wire 1 @ dbg_mem_valid $end
$var wire 32 A dbg_mem_wdata [31:0] $end
$var wire 4 B dbg_mem_wstrb [3:0] $end
$var wire 1 C instr_trap $end
$var wire 32 D irq [31:0] $end
$var wire 1 E launch_next_insn $end
$var wire 1 F mem_done $end
$var wire 1 G mem_la_firstword $end
$var wire 1 H mem_la_firstword_xfer $end
$var wire 1 I mem_la_read $end
$var wire 1 J mem_la_use_prefetched_high_word $end
$var wire 1 K mem_la_write $end
$var wire 32 L mem_rdata [31:0] $end
$var wire 32 M mem_rdata_latched [31:0] $end
$var wire 1 5 mem_ready $end
$var wire 1 N mem_xfer $end
$var wire 32 O pcpi_div_rd [31:0] $end
$var wire 1 P pcpi_div_ready $end
$var wire 1 Q pcpi_div_wait $end
$var wire 1 R pcpi_div_wr $end
$var wire 32 S pcpi_mul_rd [31:0] $end
$var wire 1 T pcpi_mul_ready $end
$var wire 1 U pcpi_mul_wait $end
$var wire 1 V pcpi_mul_wr $end
$var wire 32 W pcpi_rd [31:0] $end
$var wire 1 X pcpi_ready $end
$var wire 32 Y pcpi_rs1 [31:0] $end
$var wire 32 Z pcpi_rs2 [31:0] $end
$var wire 1 [ pcpi_wait $end
$var wire 1 \ pcpi_wr $end
$var wire 1 7 resetn $end
$var wire 32 ] next_pc [31:0] $end
$var wire 32 ^ mem_rdata_latched_noshuffle [31:0] $end
$var wire 32 _ mem_la_addr [31:0] $end
$var wire 1 ` mem_busy $end
$var wire 1 a is_rdcycle_rdcycleh_rdinstr_rdinstrh $end
$var parameter 1 b BARREL_SHIFTER $end
$var parameter 1 c CATCH_ILLINSN $end
$var parameter 1 d CATCH_MISALIGN $end
$var parameter 1 e COMPRESSED_ISA $end
$var parameter 1 f ENABLE_COUNTERS $end
$var parameter 1 g ENABLE_COUNTERS64 $end
$var parameter 1 h ENABLE_DIV $end
$var parameter 1 i ENABLE_FAST_MUL $end
$var parameter 1 j ENABLE_IRQ $end
$var parameter 1 k ENABLE_IRQ_QREGS $end
$var parameter 1 l ENABLE_IRQ_TIMER $end
$var parameter 1 m ENABLE_MUL $end
$var parameter 1 n ENABLE_PCPI $end
$var parameter 1 o ENABLE_REGS_16_31 $end
$var parameter 1 p ENABLE_REGS_DUALPORT $end
$var parameter 1 q ENABLE_TRACE $end
$var parameter 32 r LATCHED_IRQ $end
$var parameter 1 s LATCHED_MEM_RDATA $end
$var parameter 32 t MASKED_IRQ $end
$var parameter 32 u PROGADDR_IRQ $end
$var parameter 32 v PROGADDR_RESET $end
$var parameter 1 w REGS_INIT_ZERO $end
$var parameter 32 x STACKADDR $end
$var parameter 36 y TRACE_ADDR $end
$var parameter 36 z TRACE_BRANCH $end
$var parameter 36 { TRACE_IRQ $end
$var parameter 1 | TWO_CYCLE_ALU $end
$var parameter 1 } TWO_CYCLE_COMPARE $end
$var parameter 1 ~ TWO_STAGE_SHIFT $end
$var parameter 1 !" WITH_PCPI $end
$var parameter 8 "" cpu_state_exec $end
$var parameter 8 #" cpu_state_fetch $end
$var parameter 8 $" cpu_state_ld_rs1 $end
$var parameter 8 %" cpu_state_ld_rs2 $end
$var parameter 8 &" cpu_state_ldmem $end
$var parameter 8 '" cpu_state_shift $end
$var parameter 8 (" cpu_state_stmem $end
$var parameter 8 )" cpu_state_trap $end
$var parameter 32 *" irq_buserror $end
$var parameter 32 +" irq_ebreak $end
$var parameter 32 ," irq_timer $end
$var parameter 32 -" irqregs_offset $end
$var parameter 32 ." regfile_size $end
$var parameter 32 /" regindex_bits $end
$var reg 32 0" alu_add_sub [31:0] $end
$var reg 1 1" alu_eq $end
$var reg 1 2" alu_lts $end
$var reg 1 3" alu_ltu $end
$var reg 32 4" alu_out [31:0] $end
$var reg 1 5" alu_out_0 $end
$var reg 1 6" alu_out_0_q $end
$var reg 32 7" alu_out_q [31:0] $end
$var reg 32 8" alu_shl [31:0] $end
$var reg 32 9" alu_shr [31:0] $end
$var reg 1 :" alu_wait $end
$var reg 1 ;" alu_wait_2 $end
$var reg 64 <" cached_ascii_instr [63:0] $end
$var reg 32 =" cached_insn_imm [31:0] $end
$var reg 32 >" cached_insn_opcode [31:0] $end
$var reg 5 ?" cached_insn_rd [4:0] $end
$var reg 5 @" cached_insn_rs1 [4:0] $end
$var reg 5 A" cached_insn_rs2 [4:0] $end
$var reg 1 B" clear_prefetched_high_word $end
$var reg 1 C" clear_prefetched_high_word_q $end
$var reg 1 D" compressed_instr $end
$var reg 64 E" count_cycle [63:0] $end
$var reg 64 F" count_instr [63:0] $end
$var reg 8 G" cpu_state [7:0] $end
$var reg 32 H" cpuregs_rs1 [31:0] $end
$var reg 32 I" cpuregs_rs2 [31:0] $end
$var reg 32 J" cpuregs_wrdata [31:0] $end
$var reg 1 K" cpuregs_write $end
$var reg 32 L" current_pc [31:0] $end
$var reg 64 M" dbg_ascii_instr [63:0] $end
$var reg 128 N" dbg_ascii_state [127:0] $end
$var reg 32 O" dbg_insn_addr [31:0] $end
$var reg 32 P" dbg_insn_imm [31:0] $end
$var reg 32 Q" dbg_insn_opcode [31:0] $end
$var reg 5 R" dbg_insn_rd [4:0] $end
$var reg 5 S" dbg_insn_rs1 [4:0] $end
$var reg 5 T" dbg_insn_rs2 [4:0] $end
$var reg 1 U" dbg_next $end
$var reg 32 V" dbg_rs1val [31:0] $end
$var reg 1 W" dbg_rs1val_valid $end
$var reg 32 X" dbg_rs2val [31:0] $end
$var reg 1 Y" dbg_rs2val_valid $end
$var reg 1 Z" dbg_valid_insn $end
$var reg 32 [" decoded_imm [31:0] $end
$var reg 32 \" decoded_imm_j [31:0] $end
$var reg 5 ]" decoded_rd [4:0] $end
$var reg 5 ^" decoded_rs [4:0] $end
$var reg 5 _" decoded_rs1 [4:0] $end
$var reg 5 `" decoded_rs2 [4:0] $end
$var reg 1 a" decoder_pseudo_trigger $end
$var reg 1 b" decoder_pseudo_trigger_q $end
$var reg 1 c" decoder_trigger $end
$var reg 1 d" decoder_trigger_q $end
$var reg 1 e" do_waitirq $end
$var reg 32 f" eoi [31:0] $end
$var reg 1 g" instr_add $end
$var reg 1 h" instr_addi $end
$var reg 1 i" instr_and $end
$var reg 1 j" instr_andi $end
$var reg 1 k" instr_auipc $end
$var reg 1 l" instr_beq $end
$var reg 1 m" instr_bge $end
$var reg 1 n" instr_bgeu $end
$var reg 1 o" instr_blt $end
$var reg 1 p" instr_bltu $end
$var reg 1 q" instr_bne $end
$var reg 1 r" instr_ecall_ebreak $end
$var reg 1 s" instr_fence $end
$var reg 1 t" instr_getq $end
$var reg 1 u" instr_jal $end
$var reg 1 v" instr_jalr $end
$var reg 1 w" instr_lb $end
$var reg 1 x" instr_lbu $end
$var reg 1 y" instr_lh $end
$var reg 1 z" instr_lhu $end
$var reg 1 {" instr_lui $end
$var reg 1 |" instr_lw $end
$var reg 1 }" instr_maskirq $end
$var reg 1 ~" instr_or $end
$var reg 1 !# instr_ori $end
$var reg 1 "# instr_rdcycle $end
$var reg 1 ## instr_rdcycleh $end
$var reg 1 $# instr_rdinstr $end
$var reg 1 %# instr_rdinstrh $end
$var reg 1 &# instr_retirq $end
$var reg 1 '# instr_sb $end
$var reg 1 (# instr_setq $end
$var reg 1 )# instr_sh $end
$var reg 1 *# instr_sll $end
$var reg 1 +# instr_slli $end
$var reg 1 ,# instr_slt $end
$var reg 1 -# instr_slti $end
$var reg 1 .# instr_sltiu $end
$var reg 1 /# instr_sltu $end
$var reg 1 0# instr_sra $end
$var reg 1 1# instr_srai $end
$var reg 1 2# instr_srl $end
$var reg 1 3# instr_srli $end
$var reg 1 4# instr_sub $end
$var reg 1 5# instr_sw $end
$var reg 1 6# instr_timer $end
$var reg 1 7# instr_waitirq $end
$var reg 1 8# instr_xor $end
$var reg 1 9# instr_xori $end
$var reg 1 :# irq_active $end
$var reg 1 ;# irq_delay $end
$var reg 32 <# irq_mask [31:0] $end
$var reg 32 =# irq_pending [31:0] $end
$var reg 2 ># irq_state [1:0] $end
$var reg 1 ?# is_alu_reg_imm $end
$var reg 1 @# is_alu_reg_reg $end
$var reg 1 A# is_beq_bne_blt_bge_bltu_bgeu $end
$var reg 1 B# is_compare $end
$var reg 1 C# is_jalr_addi_slti_sltiu_xori_ori_andi $end
$var reg 1 D# is_lb_lh_lw_lbu_lhu $end
$var reg 1 E# is_lbu_lhu_lw $end
$var reg 1 F# is_lui_auipc_jal $end
$var reg 1 G# is_lui_auipc_jal_jalr_addi_add_sub $end
$var reg 1 H# is_sb_sh_sw $end
$var reg 1 I# is_sll_srl_sra $end
$var reg 1 J# is_slli_srli_srai $end
$var reg 1 K# is_slti_blt_slt $end
$var reg 1 L# is_sltiu_bltu_sltu $end
$var reg 1 M# last_mem_valid $end
$var reg 1 N# latched_branch $end
$var reg 1 O# latched_compr $end
$var reg 1 P# latched_is_lb $end
$var reg 1 Q# latched_is_lh $end
$var reg 1 R# latched_is_lu $end
$var reg 5 S# latched_rd [4:0] $end
$var reg 1 T# latched_stalu $end
$var reg 1 U# latched_store $end
$var reg 1 V# latched_trace $end
$var reg 32 W# mem_addr [31:0] $end
$var reg 1 X# mem_do_prefetch $end
$var reg 1 Y# mem_do_rdata $end
$var reg 1 Z# mem_do_rinst $end
$var reg 1 [# mem_do_wdata $end
$var reg 1 $ mem_instr $end
$var reg 1 \# mem_la_firstword_reg $end
$var reg 1 ]# mem_la_secondword $end
$var reg 32 ^# mem_la_wdata [31:0] $end
$var reg 4 _# mem_la_wstrb [3:0] $end
$var reg 32 `# mem_rdata_q [31:0] $end
$var reg 32 a# mem_rdata_word [31:0] $end
$var reg 2 b# mem_state [1:0] $end
$var reg 1 # mem_valid $end
$var reg 32 c# mem_wdata [31:0] $end
$var reg 2 d# mem_wordsize [1:0] $end
$var reg 4 e# mem_wstrb [3:0] $end
$var reg 64 f# new_ascii_instr [63:0] $end
$var reg 32 g# next_insn_opcode [31:0] $end
$var reg 32 h# next_irq_pending [31:0] $end
$var reg 32 i# pcpi_insn [31:0] $end
$var reg 32 j# pcpi_int_rd [31:0] $end
$var reg 1 k# pcpi_int_ready $end
$var reg 1 l# pcpi_int_wait $end
$var reg 1 m# pcpi_int_wr $end
$var reg 1 n# pcpi_timeout $end
$var reg 1 o# pcpi_valid $end
$var reg 1 p# prefetched_high_word $end
$var reg 64 q# q_ascii_instr [63:0] $end
$var reg 32 r# q_insn_imm [31:0] $end
$var reg 32 s# q_insn_opcode [31:0] $end
$var reg 5 t# q_insn_rd [4:0] $end
$var reg 5 u# q_insn_rs1 [4:0] $end
$var reg 5 v# q_insn_rs2 [4:0] $end
$var reg 32 w# reg_next_pc [31:0] $end
$var reg 32 x# reg_op1 [31:0] $end
$var reg 32 y# reg_op2 [31:0] $end
$var reg 32 z# reg_out [31:0] $end
$var reg 32 {# reg_pc [31:0] $end
$var reg 5 |# reg_sh [4:0] $end
$var reg 1 }# set_mem_do_rdata $end
$var reg 1 ~# set_mem_do_rinst $end
$var reg 1 !$ set_mem_do_wdata $end
$var reg 32 "$ timer [31:0] $end
$var reg 36 #$ trace_data [35:0] $end
$var reg 1 $$ trace_valid $end
$var reg 1 %$ trap $end
$scope begin genblk1 $end
$upscope $end
$scope begin genblk2 $end
$upscope $end
$scope begin genblk3 $end
$upscope $end
$scope task empty_statement $end
$upscope $end
$upscope $end
$scope begin wait_for_completion $end
$upscope $end
$scope task check_result $end
$var reg 32 &$ actual [31:0] $end
$var reg 32 '$ expected [31:0] $end
$var reg 128 ($ test_name [127:0] $end
$var integer 32 )$ test_num [31:0] $end
$upscope $end
$scope task print_summary $end
$upscope $end
$upscope $end
$enddefinitions $end
$comment Show the parameter values. $end
$dumpall
b101 /"
b100000 ."
b100000 -"
b0 ,"
b1 +"
b10 *"
b10000000 )"
b10 ("
b100 '"
b1 &"
b10000 %"
b100000 $"
b1000000 #"
b1000 ""
0!"
1~
0}
0|
b100000000000000000000000000000000000 {
b100000000000000000000000000000000 z
b1000000000000000000000000000000000 y
b11111111111111111111111111111111 x
0w
b0 v
b10000 u
b0 t
0s
b11111111111111111111111111111111 r
0q
1p
1o
0n
0m
1l
1k
0j
0i
0h
1g
1f
0e
1d
1c
0b
$end
#0
$dumpvars
bx )$
bx ($
bx '$
bx &$
x%$
x$$
bx #$
bx "$
x!$
x~#
x}#
bx |#
bx {#
bx z#
bx y#
bx x#
bx w#
bx v#
bx u#
bx t#
bx s#
bx r#
bx q#
xp#
xo#
xn#
0m#
0l#
0k#
bx j#
bx i#
bx h#
bx g#
bx f#
bx e#
bx d#
bx c#
bx b#
bx a#
bx `#
bx _#
bx ^#
x]#
x\#
x[#
xZ#
xY#
xX#
bx W#
xV#
xU#
xT#
bx S#
xR#
xQ#
xP#
xO#
xN#
xM#
xL#
xK#
xJ#
xI#
xH#
xG#
xF#
xE#
xD#
xC#
xB#
xA#
x@#
x?#
bx >#
bx =#
bx <#
x;#
x:#
x9#
x8#
x7#
x6#
x5#
x4#
x3#
x2#
x1#
x0#
x/#
x.#
x-#
x,#
x+#
x*#
x)#
x(#
x'#
x&#
x%#
x$#
x##
x"#
x!#
x~"
x}"
x|"
x{"
xz"
xy"
xx"
xw"
xv"
xu"
xt"
xs"
xr"
xq"
xp"
xo"
xn"
xm"
xl"
xk"
xj"
xi"
xh"
xg"
bx f"
xe"
xd"
xc"
xb"
xa"
bx `"
bx _"
bx ^"
bx ]"
bx \"
bx ["
xZ"
xY"
bx X"
xW"
bx V"
xU"
bx T"
bx S"
bx R"
bx Q"
bx P"
bx O"
bx N"
bx M"
bx L"
xK"
bx J"
bx I"
bx H"
bx G"
bx F"
bx E"
xD"
xC"
0B"
bx A"
bx @"
bx ?"
bx >"
bx ="
bx <"
x;"
x:"
bx 9"
bx 8"
bx 7"
x6"
x5"
bx 4"
x3"
x2"
x1"
bx 0"
xa
x`
bx00 _
bx ^
bx ]
0\
0[
bx Z
bx Y
0X
b0 W
0V
0U
0T
bx S
0R
0Q
0P
bx O
0N
bx M
b0 L
0K
0J
0I
0H
0G
0F
xE
b0 D
xC
bx B
bx A
x@
0?
b0 >
x=
bx <
b0 ;
bx :
b10000000000 9
b0 8
07
b0 6
05
b0 4
b0 3
b1111 2
b1 1
b1 0
b1111000000000000000000000000 /
b11110000 .
b11111111111111111111111111111111 -
b11111111111111111111111111111111 ,
b0 +
b111111111111 *
b101 )
b1000 (
b0 '
0&
bx %
x$
x#
bx "
bx !
$end
#5000
0E
b0 f#
b110011001100101011101000110001101101000 N"
b0 ]
0K"
0M#
0\#
0p#
0]#
0@
0#
b0 b#
0Z"
0s"
0i"
0~"
00#
02#
08#
0/#
0,#
0*#
04#
0g"
0j"
0!#
09#
0.#
0-#
0h"
0n"
0p"
0m"
0o"
0q"
0l"
0B#
0A#
0C"
b0 =#
0`
0[#
0Y#
0Z#
0X#
b1000000 G"
b0 "$
b0 f"
b0 >#
b11111111111111111111111111111111 <#
0;#
0:#
0n#
0o#
0P#
0Q#
0R#
0V#
0N#
0T#
0U#
b0 F"
b0 w#
b0 {#
0$$
0e"
0a"
0c"
b0 E"
0;"
0:"
0%$
b0 h#
0!$
0}#
0~#
1&
#10000
0&
#15000
0b"
0d"
0L#
0K#
0U"
b0 h#
1&
#20000
0&
#25000
1I
b0 _
b0 a#
b1111 _#
bx =#
b0 d#
1`
1Z#
b1 E"
bx L"
bx h#
17
1&
#30000
0&
#35000
0I
b1 '
b10 E"
b1 b#
1=
1$
1@
1#
b0 B
b0 !
b0 e#
b0 <
b0 %
b0 W#
bx L"
b1 ;
1&
#40000
0&
#45000
1F
b10000000000000000000010010011 M
b10000000000000000000010010011 ^
1N
b10000000000000000000010010011 a#
1M#
b11 E"
b10000000000000000000010010011 >
b10000000000000000000010010011 4
b10000000000000000000010010011 L
1?
15
b10 '
b10 ;
bx L"
1&
#50000
0&
#55000
0F
0I
bx00 _
1E
0N
b0 I"
b0 H"
b11 '
0`
0Z#
1c"
b100 E"
0D"
b0 `"
b0 _"
b1 ]"
b100000000 \"
0@#
1?#
0H#
0D#
07#
0&#
0v"
0u"
0k"
0{"
b0 b#
0@
0#
b10000000000000000000010010011 g#
b10000000000000000000010010011 `#
0M#
bx L"
b11 ;
1&
#60000
0&
#65000
1I
b100 _
0E
b1 R"
b0 T"
b0 S"
b100000000 P"
b10000000000000000000010010011 Q"
b1100001011001000110010001101001 M"
0C
b1100001011001000110010001101001 f#
b11011000110010001011111011100100111001100110001 N"
b100 ]
b0 O"
1Z"
1U"
b100000000 ["
0I#
1C#
0J#
06#
0}"
0(#
0t"
0r"
0a
0%#
0$#
0##
0"#
01#
03#
0+#
1h"
05#
0)#
0'#
0z"
0x"
0|"
0y"
0w"
0G#
0F#
b100000 G"
1`
1X#
b1 F"
b100 w#
0O#
b1 S#
1d"
0c"
b101 E"
0Y"
0W"
0?
05
b100 '
b100 ;
bx L"
1&
#70000
0&
#75000
0I
b100000000 4"
b1100101011110000110010101100011 N"
b100000000 ^#
b0 9"
b0 8"
13"
12"
01"
b100000000 0"
b101 '
b1000 G"
1Z#
b100000000 Z
b100000000 y#
1W"
b0 V"
b0 Y
b0 x#
0d"
b110 E"
0E#
1G#
b1 ?"
b0 A"
b0 @"
b10000000000000000000010010011 >"
b100000000 ="
b1100001011001000110010001101001 <"
0U"
b1 t#
b0 v#
b0 u#
b10000000000000000000010010011 s#
b100000000 r#
b1100001011001000110010001101001 q#
b1 b#
1@
1#
b100 <
b100 %
b100 W#
b101 ;
1&
#80000
0&
#85000
1F
b100000000000000000000100010011 M
b100000000000000000000100010011 ^
1N
b110011001100101011101000110001101101000 N"
1K"
b100000000 J"
b100000000000000000000100010011 a#
1M#
b1000000 G"
1T#
1U#
b100000000 z#
b111 E"
b100000000 7"
b100000000000000000000100010011 >
b100000000000000000000100010011 4
b100000000000000000000100010011 L
1?
15
b110 '
b110 ;
1&
#90000
0&
#95000
0F
0I
b0 _
1E
0N
bx J"
0K"
b111 '
0`
0Z#
0X#
0T#
0U#
b100 {#
1c"
b1000 E"
bx z#
b10 ]"
b1000000000 \"
b0 b#
0@
0#
b100000000000000000000100010011 g#
b100000000000000000000100010011 `#
0M#
bx L"
b111 ;
1&
#100000
0&
#105000
1I
b1000 _
0E
b10 R"
b1000000000 P"
b100000000000000000000100010011 Q"
bx 4"
b11011000110010001011111011100100111001100110001 N"
b1000 ]
b100 O"
1U"
b1000000000 ["
0G#
b100000 G"
1`
1X#
b10 F"
b1000 w#
b10 S#
1d"
0c"
b1001 E"
0W"
bx V"
0?
05
b1000 '
b1000 ;
bx L"
1&
#110000
0&
#115000
0I
b1100101011110000110010101100011 N"
b1000000000 ^#
b1000000000 0"
b1000000000 4"
b1001 '
b1000 G"
1Z#
1W"
b0 V"
b1000000000 Z
b1000000000 y#
b0 Y
b0 x#
0d"
b1010 E"
bx 7"
1G#
b10 ?"
b100000000000000000000100010011 >"
b1000000000 ="
0U"
b10 t#
b100000000000000000000100010011 s#
b1000000000 r#
b1 b#
1@
1#
b1000 <
b1000 %
b1000 W#
b1001 ;
1&
#120000
0&
#125000
1F
b10100000000001010010011 M
b10100000000001010010011 ^
1N
b110011001100101011101000110001101101000 N"
1K"
b1000000000 J"
b10100000000001010010011 a#
1M#
b1000000 G"
1T#
1U#
b1000000100 z#
b1011 E"
b1000000000 7"
b10100000000001010010011 >
b10100000000001010010011 4
b10100000000001010010011 L
1?
15
b1010 '
b1010 ;
1&
#130000
0&
#135000
0F
0I
b0 _
1E
0N
bx J"
0K"
bx I"
b1011 '
0`
0Z#
0X#
0T#
0U#
b1000 {#
1c"
b1100 E"
bx z#
b101 `"
b101 ]"
b100000000100 \"
b0 b#
0@
0#
b10100000000001010010011 g#
b10100000000001010010011 `#
0M#
bx L"
b1011 ;
1&
#140000
0&
#145000
1I
b1100 _
0E
b101 R"
b101 T"
b101 P"
b10100000000001010010011 Q"
bx 4"
b11011000110010001011111011100100111001100110001 N"
b1100 ]
b1000 O"
1U"
b101 ["
0G#
b100000 G"
1`
1X#
b11 F"
b1100 w#
b101 S#
1d"
0c"
b1101 E"
0W"
bx V"
0?
05
b1100 '
b1100 ;
bx L"
1&
#150000
0&
#155000
0I
b1100101011110000110010101100011 N"
b101 ^#
b101 0"
b101 4"
b1101 '
b1000 G"
1Z#
1W"
b0 V"
b101 Z
b101 y#
b0 Y
b0 x#
0d"
b1110 E"
bx 7"
1G#
b101 ?"
b101 A"
b10100000000001010010011 >"
b101 ="
0U"
b101 t#
b101 v#
b10100000000001010010011 s#
b101 r#
b1 b#
1@
1#
b1100 <
b1100 %
b1100 W#
b1101 ;
1&
#160000
0&
#165000
1F
b1100000000001100010011 M
b1100000000001100010011 ^
1N
b110011001100101011101000110001101101000 N"
1K"
b101 J"
b1100000000001100010011 a#
1M#
b1000000 G"
1T#
1U#
b1101 z#
b1111 E"
b101 7"
b1100000000001100010011 >
b1100000000001100010011 4
b1100000000001100010011 L
1?
15
b1110 '
b1110 ;
1&
#170000
0&
#175000
0F
0I
b0 _
1E
0N
bx J"
0K"
b1111 '
0`
0Z#
0X#
0T#
0U#
b1100 {#
1c"
b10000 E"
bx z#
b11 `"
b110 ]"
b100000000010 \"
b0 b#
0@
0#
b1100000000001100010011 g#
b1100000000001100010011 `#
0M#
bx L"
b1111 ;
1&
#180000
0&
#185000
1I
b10000 _
0E
b110 R"
b11 T"
b11 P"
b1100000000001100010011 Q"
bx 4"
b11011000110010001011111011100100111001100110001 N"
b10000 ]
b1100 O"
1U"
b11 ["
0G#
b100000 G"
1`
1X#
b100 F"
b10000 w#
b110 S#
1d"
0c"
b10001 E"
0W"
bx V"
0?
05
b10000 '
b10000 ;
bx L"
1&
#190000
0&
#195000
0I
b1100101011110000110010101100011 N"
b11 ^#
b11 0"
b11 4"
b10001 '
b1000 G"
1Z#
1W"
b0 V"
b11 Z
b11 y#
b0 Y
b0 x#
0d"
b10010 E"
bx 7"
1G#
b110 ?"
b11 A"
b1100000000001100010011 >"
b11 ="
0U"
b110 t#
b11 v#
b1100000000001100010011 s#
b11 r#
b1 b#
1@
1#
b10000 <
b10000 %
b10000 W#
b10001 ;
1&
#200000
0&
#205000
1F
b11000101000001110110011 M
b11000101000001110110011 ^
1N
b110011001100101011101000110001101101000 N"
1K"
b11 J"
b11000101000001110110011 a#
1M#
b1000000 G"
1T#
1U#
b1111 z#
b10011 E"
b11 7"
b11000101000001110110011 >
b11000101000001110110011 4
b11000101000001110110011 L
1?
15
b10010 '
b10010 ;
1&
#210000
0&
#215000
0F
0I
b0 _
1E
0N
bx J"
0K"
b11 I"
b101 H"
b10011 '
0`
0Z#
0X#
0T#
0U#
b10000 {#
1c"
b10100 E"
bx z#
b110 `"
b101 _"
b111 ]"
b101000000000000110 \"
1@#
0?#
b0 b#
0@
0#
b11000101000001110110011 g#
b11000101000001110110011 `#
0M#
bx L"
b10011 ;
1&
#220000
0&
#225000
1I
b10100 _
0E
b111 R"
b110 T"
b101 S"
b0x P"
b11000101000001110110011 Q"
b11000010110010001100100 M"
bx 4"
b11000010110010001100100 f#
b11011000110010001011111011100100111001100110001 N"
b10100 ]
b10000 O"
1U"
b0x ["
0G#
0C#
1g"
0h"
b100000 G"
1`
1X#
b101 F"
b10100 w#
b111 S#
1d"
0c"
b10101 E"
0W"
bx V"
0?
05
b10100 '
b10100 ;
bx L"
1&
#230000
0&
#235000
0I
b1100101011110000110010101100011 N"
b101000 8"
03"
02"
b1000 0"
b1000 4"
b10101 '
b1000 G"
1Z#
1Y"
b11 X"
b11 |#
1W"
b101 V"
b11 Z
b11 y#
b101 Y
b101 x#
0d"
b10110 E"
bx 7"
1G#
b111 ?"
b110 A"
b101 @"
b11000101000001110110011 >"
b0x ="
b11000010110010001100100 <"
0U"
b111 t#
b110 v#
b101 u#
b11000101000001110110011 s#
b0x r#
b11000010110010001100100 q#
b1 b#
1@
1#
b10100 <
b10100 %
b10100 W#
b10101 ;
1&
#240000
0&
#245000
1F
b11100001010000000100011 M
b11100001010000000100011 ^
1N
b110011001100101011101000110001101101000 N"
1K"
b1000 J"
b11100001010000000100011 a#
1M#
b1000000 G"
1T#
1U#
b10111 E"
b1000 7"
bx |#
b11100001010000000100011 >
b11100001010000000100011 4
b11100001010000000100011 L
1?
15
b10110 '
b10110 ;
1&
#250000
0&
#255000
0F
0I
b100 _
1E
0N
bx J"
0K"
b1000 I"
b100000000 H"
b10111 '
0`
0Z#
0X#
0T#
0U#
b10100 {#
1c"
b11000 E"
b111 `"
b1 _"
b0 ]"
b1010100000000110 \"
0@#
1H#
b0 b#
0@
0#
b11100001010000000100011 g#
b11100001010000000100011 `#
0M#
bx L"
b10111 ;
1&
#260000
0&
#265000
1I
b11000 _
0E
b0 R"
b111 T"
b1 S"
b0 P"
b11100001010000000100011 Q"
b111001101110111 M"
bx 4"
b111001101110111 f#
b11011000110010001011111011100100111001100110001 N"
b11000 ]
b10100 O"
1U"
b0 ["
0G#
0g"
15#
b100000 G"
1`
1X#
b110 F"
b11000 w#
b0 S#
1d"
0c"
b11001 E"
0Y"
0W"
bx X"
bx V"
0?
05
b11000 '
b11000 ;
bx L"
1&
#270000
0&
#275000
0I
b111001101110100011011010110010101101101 N"
b1000 ^#
b1 9"
b10000000000000000 8"
b100001000 0"
b11001 '
1Z#
b10 G"
1Y"
b1000 X"
b1000 |#
1W"
b100000000 V"
b1000 Z
b1000 y#
b100000000 Y
b100000000 x#
0d"
b11010 E"
bx 7"
b0 ?"
b111 A"
b1 @"
b11100001010000000100011 >"
b0 ="
b111001101110111 <"
0U"
b0 t#
b111 v#
b1 u#
b11100001010000000100011 s#
b0 r#
b111001101110111 q#
b1 b#
1@
1#
b11000 <
b11000 %
b11000 W#
b11001 ;
1&
#280000
0&
#285000
1F
b100000000000010000010011 M
b100000000000010000010011 ^
1N
b100000000000010000010011 a#
1M#
b11011 E"
bx |#
b100000000000010000010011 >
b100000000000010000010011 4
b100000000000010000010011 L
1?
15
b11010 '
b11010 ;
1&
#290000
0&
#295000
0F
0I
b100000000 _
0N
1K
bx I"
b0 H"
b11011 '
1[#
1`
0Z#
0X#
1c"
b11100 E"
b1000 `"
b0 _"
b1000 ]"
b1000 \"
1?#
0H#
b0 b#
0@
0#
b100000000000010000010011 g#
b100000000000010000010011 `#
0M#
1!$
b11011 ;
1&
#300000
0&
#305000
0K
b1100001011001000110010001101001 f#
b10 b#
0=
0$
1@
1#
b1000 A
b1000 "
b1000 c#
b1111 B
b1111 !
b1111 e#
b100000000 <
b100000000 %
b100000000 W#
b1000 ["
1C#
1h"
05#
1d"
0c"
b11101 E"
0?
05
b11100 '
b11100 ;
0!$
1&
#310000
0&
#315000
1F
1N
b100001000 4"
b11101 '
1?
15
0d"
b11110 E"
1G#
b1000 ?"
b1000 A"
b0 @"
b100000000000010000010011 >"
b1000 ="
b1100001011001000110010001101001 <"
1M#
b11101 ;
1&
#320000
0&
#325000
0F
0N
1E
b110011001100101011101000110001101101000 N"
0M#
b0 b#
0@
0#
0`
0[#
1a"
1c"
b1000000 G"
b11111 E"
b100001000 7"
b11110 '
b1 6
b10000010100010001000100 ($
b11110 ;
b1000 '$
b1000 &$
b0 )$
b1 8
b0 :
1&
#330000
0&
#335000
1I
b11100 _
0E
b11011000110010001011111011100100111001100110001 N"
b11100 ]
b1000 R"
b1000 T"
b0 S"
b100000000000010000010011 Q"
b1000 P"
b1100001011001000110010001101001 M"
b11111 '
0?
05
b100000 G"
1`
1X#
b111 F"
b11100 w#
b1000 S#
b11000 {#
1b"
0a"
1d"
0c"
b100000 E"
0Y"
0W"
bx X"
bx V"
b11000 O"
1U"
bx L"
b11111 ;
1&
#340000
0&
#345000
0I
b1100101011110000110010101100011 N"
b1000 4"
b0 9"
b0 8"
13"
12"
b1000 0"
b1 b#
1=
1$
1@
1#
b0 B
b0 !
b0 e#
b11100 <
b11100 %
b11100 W#
0U"
b1000 t#
b1000 v#
b0 u#
b100000000000010000010011 s#
b1000 r#
b1100001011001000110010001101001 q#
b1000 G"
1Z#
1W"
b0 V"
b1000 Z
b1000 y#
b0 Y
b0 x#
0b"
0d"
b100001 E"
b100000 '
b100000 ;
1&
#350000
0&
