test/IF/tb_fetch.vcd
$date
	Thu Jan 29 16:37:43 2026
$end
$version
	Icarus Verilog
$end
$timescale
	1ps
$end
$scope module tb_fetch $end
$var reg 1 ! clk $end
$upscope $end
$scope module tb_fetch $end
$var reg 1 " resetn $end
$upscope $end
$scope module tb_fetch $end
$var wire 1 # trap $end
$upscope $end
$scope module tb_fetch $end
$var integer 32 $ cycle_count [31:0] $end
$upscope $end
$scope module tb_fetch $end
$var integer 32 % fetch_count [31:0] $end
$upscope $end
$scope module tb_fetch $end
$var integer 32 & test_num [31:0] $end
$upscope $end
$scope module tb_fetch $end
$var wire 1 ' mem_valid $end
$upscope $end
$scope module tb_fetch $end
$var wire 1 ( mem_instr $end
$upscope $end
$scope module tb_fetch $end
$var reg 1 ) mem_ready $end
$upscope $end
$scope module tb_fetch $end
$var wire 32 * mem_addr [31:0] $end
$upscope $end
$scope module tb_fetch $end
$var reg 32 + mem_rdata [31:0] $end
$upscope $end
$scope module tb_fetch $end
$var wire 32 , mem_wdata [31:0] $end
$upscope $end
$scope module tb_fetch $end
$var wire 4 - mem_wstrb [3:0] $end
$upscope $end
$scope module tb_fetch $end
$var wire 1 . mem_la_read $end
$upscope $end
$scope module tb_fetch $end
$var wire 1 / mem_la_write $end
$upscope $end
$scope module tb_fetch $end
$var wire 32 0 mem_la_addr [31:0] $end
$upscope $end
$scope module tb_fetch $end
$scope module dut $end
$var reg 8 1 cpu_state [7:0] $end
$upscope $end
$upscope $end
$scope module tb_fetch $end
$scope module dut $end
$var reg 32 2 reg_pc [31:0] $end
$upscope $end
$upscope $end
$scope module tb_fetch $end
$scope module dut $end
$var reg 32 3 reg_next_pc [31:0] $end
$upscope $end
$upscope $end
$scope module tb_fetch $end
$scope module dut $end
$var reg 1 4 mem_do_rinst $end
$upscope $end
$upscope $end
$scope module tb_fetch $end
$scope module dut $end
$var reg 1 5 mem_do_prefetch $end
$upscope $end
$upscope $end
$scope module tb_fetch $end
$scope module dut $end
$var reg 1 6 decoder_trigger $end
$upscope $end
$upscope $end
$scope module tb_fetch $end
$scope module dut $end
$var reg 2 7 mem_state [1:0] $end
$upscope $end
$upscope $end
$scope module tb_fetch $end
$scope module dut $end
$var wire 32 8 mem_rdata_latched [31:0] $end
$upscope $end
$upscope $end
$enddefinitions $end
$comment Show the parameter values. $end
$dumpall
$end
#0
$dumpvars
bx 8
bx 7
x6
x5
x4
bx 3
bx 2
bx 1
bx00 0
0/
0.
bx -
bx ,
bx +
bx *
x)
x(
x'
b0 &
b0 %
b0 $
x#
0"
0!
$end
#5000
0'
b0 7
04
05
b1000000 1
b0 3
b0 2
06
0#
b0 +
0)
1!
#10000
0!
b1 &
#15000
1!
#16000
1"
#20000
0!
#25000
1.
b0 0
14
b1 $
1!
#30000
0!
#35000
0.
b10 &
b10 $
b1 7
1(
1'
b0 -
b0 *
1!
#40000
0!
#45000
b10100000000000010010011 8
b10100000000000010010011 +
1)
b11 $
1!
#50000
0!
#55000
0.
bx00 0
b1 %
b100 $
0)
04
16
b0 7
0'
1!
#60000
0!
#65000
1.
b100 0
b100000 1
15
b100 3
06
b101 $
1!
#70000
0!
#75000
0.
b110 $
b1000 1
14
b1 7
1'
b100 *
1!
#80000
0!
#85000
b101000000000000100010011 8
b1000000 1
b101000000000000100010011 +
1)
b111 $
1!
#90000
0!
#95000
0.
b0 0
b10 %
b1000 $
0)
04
05
b100 2
16
b0 7
0'
1!
#100000
0!
#105000
1.
b1000 0
b100000 1
15
b1000 3
06
b1001 $
1!
#110000
0!
#115000
0.
b1010 $
b1000 1
14
b1 7
1'
b1000 *
1!
#120000
0!
#125000
b1000001000000110110011 8
b1000000 1
b1000001000000110110011 +
1)
b1011 $
1!
#130000
0!
#135000
0.
b0 0
b11 %
b1100 $
0)
04
05
b1000 2
16
b0 7
0'
b11 &
1!
#140000
0!
#145000
1.
b1100 0
b100000 1
15
b1100 3
06
b1101 $
1!
#150000
0!
#155000
0.
b1110 $
b1000 1
14
b1 7
1'
b1100 *
1!
#160000
0!
#165000
b1000000000100010000001000110011 8
b1000000 1
b1000000000100010000001000110011 +
1)
b1111 $
1!
#170000
0!
#175000
0.
b100 0
b100 %
b10000 $
0)
04
05
b1100 2
16
b0 7
0'
1!
#180000
0!
#185000
1.
b10000 0
b100000 1
15
b10000 3
06
b10001 $
1!
#190000
0!
#195000
0.
b10010 $
b1000 1
14
b1 7
1'
b10000 *
1!
#200000
0!
#205000
b1010000000000001010010011 8
b1000000 1
b1010000000000001010010011 +
1)
b10011 $
1!
#210000
0!
#215000
0.
b1000 0
b101 %
b10100 $
0)
04
05
b10000 2
16
b0 7
0'
1!
#220000
0!
#225000
1.
b10100 0
b100000 1
15
b10100 3
06
b10101 $
1!
#230000
0!
#235000
0.
b10110 $
b1000 1
14
b1 7
1'
b10100 *
1!
#240000
0!
#245000
b100000000000000011101111 8
b1000000 1
b100000000000000011101111 +
1)
b10111 $
1!
#250000
0!
#255000
0.
b0 0
b110 %
b11000 $
0)
04
05
b10100 2
16
b0 7
0'
1!
#260000
0!
#265000
1.
b11100 0
14
b11100 3
06
b11001 $
1!
#270000
0!
#275000
0.
b11010 $
b11100 2
b1 7
1'
b11100 *
1!
#280000
0!
#285000
b1111000000000001110010011 8
b1111000000000001110010011 +
1)
b11011 $
1!
#290000
0!
#295000
0.
b0 0
b111 %
b11100 $
0)
04
16
b0 7
0'
1!
#300000
0!
#305000
1.
b100000 0
b100000 1
15
b100000 3
06
b11101 $
1!
#310000
0!
#315000
0.
b11110 $
b1000 1
14
b1 7
1'
b100000 *
1!
#320000
0!
#325000
b10000011001010000110011 8
b1000000 1
b10000011001010000110011 +
1)
b11111 $
1!
#330000
0!
#335000
0.
b0 0
b1000 %
b100000 $
0)
04
05
b100000 2
16
b0 7
0'
1!
#340000
0!
#345000
1.
b100100 0
b100000 1
15
b100100 3
06
b100001 $
1!
#350000
0!
#355000
0.
b100010 $
b100 1
b1 7
1'
b100100 *
1!
#360000
0!
#365000
b1000001110010010110011 8
b1000001110010010110011 +
1)
b100011 $
1!
#370000
0!
#375000
b1001 %
b100100 $
0)
b11 7
0'
1!
#380000
0!
#385000
b1000000 1
14
b100101 $
1!
#390000
0!
#395000
0.
b111100000 0
b100110 $
04
05
b100100 2
16
b0 7
1!
#400000
0!
#405000
1.
b101000 0
b100000 1
15
b101000 3
06
b100111 $
1!
#410000
0!
#415000
0.
b101000 $
b1000 1
14
b1 7
1'
b101000 *
1!
#420000
0!
#425000
b10011 8
b1000000 1
b10011 +
1)
b101001 $
1!
#430000
0!
#435000
0.
b11000 0
b1010 %
b101010 $
0)
04
05
b101000 2
16
b0 7
0'
1!
#440000
0!
#445000
1.
b101100 0
b100000 1
15
b101100 3
06
b101011 $
1!
#450000
0!
#455000
0.
b101100 $
b1000 1
14
b1 7
1'
b101100 *
1!
#460000
0!
#465000
b1000000 1
1)
b101101 $
1!
#470000
0!
#475000
0.
b0 0
b1011 %
b101110 $
0)
04
05
b101100 2
16
b0 7
0'
1!
#480000
0!
#485000
1.
b110000 0
b100000 1
15
b110000 3
06
b101111 $
1!
#490000
0!
#495000
0.
b110000 $
b1000 1
14
b1 7
1'
b110000 *
1!
#500000
0!
#505000
b1000000 1
1)
b110001 $
1!
#510000
0!
#515000
0.
b0 0
b1100 %
b110010 $
0)
04
05
b110000 2
16
b0 7
0'
1!
#520000
0!
#525000
1.
b110100 0
b100000 1
15
b110100 3
06
b110011 $
1!
#530000
0!
#535000
0.
b110100 $
b1000 1
14
b1 7
1'
b110100 *
1!
#540000
0!
#545000
b1000000 1
1)
b110101 $
1!
#550000
0!
#555000
0.
b0 0
b1101 %
b110110 $
0)
04
05
b110100 2
16
b0 7
0'
1!
#560000
0!
#565000
1.
b111000 0
b100000 1
15
b111000 3
06
b110111 $
1!
#570000
0!
#575000
0.
b111000 $
b1000 1
14
b1 7
1'
b111000 *
1!
#580000
0!
#585000
b1000000 1
1)
b111001 $
1!
#590000
0!
#595000
0.
b0 0
b1110 %
b111010 $
0)
04
05
b111000 2
16
b0 7
0'
1!
#600000
0!
#605000
1.
b111100 0
b100000 1
15
b111100 3
06
b111011 $
1!
#610000
0!
#615000
0.
b111100 $
b1000 1
14
b1 7
1'
b111100 *
1!
#620000
0!
#625000
b1000000 1
1)
b111101 $
1!
#630000
0!
#635000
0.
b0 0
b1111 %
b111110 $
0)
04
05
b111100 2
16
b0 7
0'
1!
#640000
0!
#645000
1.
b1000000 0
b100000 1
15
b1000000 3
06
b111111 $
1!
#650000
0!
#655000
0.
b1000000 $
b1000 1
14
b1 7
1'
b1000000 *
1!
#660000
0!
#665000
b1000000 1
1)
b1000001 $
1!
#670000
0!
#675000
0.
b0 0
b10000 %
b1000010 $
0)
04
05
b1000000 2
16
b0 7
0'
1!
#680000
0!
#685000
1.
b1000100 0
b100000 1
15
b1000100 3
06
b1000011 $
1!
#690000
0!
#695000
0.
b1000100 $
b1000 1
14
b1 7
1'
b1000100 *
1!
#700000
0!
#705000
b1000000 1
1)
b1000101 $
1!
#710000
0!
#715000
0.
b0 0
b10001 %
b1000110 $
0)
04
05
b1000100 2
16
b0 7
0'
1!
#720000
0!
#725000
1.
b1001000 0
b100000 1
15
b1001000 3
06
b1000111 $
1!
#730000
0!
#735000
0.
b1001000 $
b1000 1
14
b1 7
1'
b1001000 *
1!
#740000
0!
#745000
b1000000 1
1)
b1001001 $
1!
#750000
0!
#755000
0.
b0 0
b10010 %
b1001010 $
0)
04
05
b1001000 2
16
b0 7
0'
1!
#760000
0!
#765000
1.
b1001100 0
b100000 1
15
b1001100 3
06
b1001011 $
1!
#770000
0!
#775000
0.
b1001100 $
b1000 1
14
b1 7
1'
b1001100 *
1!
#780000
0!
#785000
b1000000 1
1)
b1001101 $
1!
#790000
0!
#795000
0.
b0 0
b10011 %
b1001110 $
0)
04
05
b1001100 2
16
b0 7
0'
1!
#800000
0!
#805000
1.
b1010000 0
b100000 1
15
b1010000 3
06
b1001111 $
1!
#810000
0!
#815000
0.
b1010000 $
b1000 1
14
b1 7
1'
b1010000 *
1!
#820000
0!
#825000
b1000000 1
1)
b1010001 $
1!
#830000
0!
#835000
0.
b0 0
b10100 %
b1010010 $
0)
04
05
b1010000 2
16
b0 7
0'
1!
#840000
0!
#845000
1.
b1010100 0
b100000 1
15
b1010100 3
06
b1010011 $
1!
#850000
0!
#855000
0.
b1010100 $
b1000 1
14
b1 7
1'
b1010100 *
1!
#860000
0!
#865000
b1000000 1
1)
b1010101 $
1!
#870000
0!
#875000
0.
b0 0
b10101 %
b1010110 $
0)
04
05
b1010100 2
16
b0 7
0'
1!
#880000
0!
#885000
1.
b1011000 0
b100000 1
15
b1011000 3
06
b1010111 $
1!
#890000
0!
#895000
0.
b1011000 $
b1000 1
14
b1 7
1'
b1011000 *
1!
#900000
0!
#905000
b1000000 1
1)
b1011001 $
1!
#910000
0!
#915000
0.
b0 0
b10110 %
b1011010 $
0)
04
05
b1011000 2
16
b0 7
0'
1!
#920000
0!
#925000
1.
b1011100 0
b100000 1
15
b1011100 3
06
b1011011 $
1!
#930000
0!
#935000
0.
b1011100 $
b1000 1
14
b1 7
1'
b1011100 *
1!
#940000
0!
#945000
b1000000 1
1)
b1011101 $
1!
#950000
0!
#955000
0.
b0 0
b10111 %
b1011110 $
0)
04
05
b1011100 2
16
b0 7
0'
1!
#960000
0!
#965000
1.
b1100000 0
b100000 1
15
b1100000 3
06
b1011111 $
1!
#970000
0!
#975000
0.
b1100000 $
b1000 1
14
b1 7
1'
b1100000 *
1!
#980000
0!
#985000
b1000000 1
1)
b1100001 $
1!
#990000
0!
#995000
0.
b0 0
b11000 %
b1100010 $
0)
04
05
b1100000 2
16
b0 7
0'
1!
#1000000
0!
#1005000
1.
b1100100 0
b100000 1
15
b1100100 3
06
b1100011 $
1!
#1010000
0!
#1015000
0.
b1100100 $
b1000 1
14
b1 7
1'
b1100100 *
1!
#1020000
0!
#1025000
b1000000 1
1)
b1100101 $
1!
#1030000
0!
#1035000
0.
b0 0
b11001 %
b1100110 $
0)
04
05
b1100100 2
16
b0 7
0'
1!
#1040000
0!
#1045000
1.
b1101000 0
b100000 1
15
b1101000 3
06
b1100111 $
1!
#1050000
0!
#1055000
0.
b1101000 $
b1000 1
14
b1 7
1'
b1101000 *
1!
#1060000
0!
#1065000
b1000000 1
1)
b1101001 $
1!
#1070000
0!
#1075000
0.
b0 0
b11010 %
b1101010 $
0)
04
05
b1101000 2
16
b0 7
0'
1!
#1080000
0!
#1085000
1.
b1101100 0
b100000 1
15
b1101100 3
06
b1101011 $
1!
#1090000
0!
#1095000
0.
b1101100 $
b1000 1
14
b1 7
1'
b1101100 *
1!
#1100000
0!
#1105000
b1000000 1
1)
b1101101 $
1!
#1110000
0!
#1115000
0.
b0 0
b11011 %
b1101110 $
0)
04
05
b1101100 2
16
b0 7
0'
1!
#1120000
0!
#1125000
1.
b1110000 0
b100000 1
15
b1110000 3
06
b1101111 $
1!
#1130000
0!
#1135000
0.
b1110000 $
b1000 1
14
b1 7
1'
b1110000 *
b100 &
1!
#1140000
0!
#1145000
b1000000 1
1)
b1110001 $
1!
#1150000
0!
#1155000
0.
b0 0
b11100 %
b1110010 $
0)
04
05
b1110000 2
16
b0 7
0'
b101 &
1!
#1160000
0!
#1165000
1.
b1110100 0
b100000 1
15
b1110100 3
06
b1110011 $
1!
#1170000
0!
#1175000
0.
b1110100 $
b1000 1
14
b1 7
1'
b1110100 *
1!
#1180000
0!
#1185000
b1000000 1
1)
b1110101 $
1!
#1190000
0!
#1195000
0.
b0 0
b11101 %
b1110110 $
0)
04
05
b1110100 2
16
b0 7
0'
1!
#1200000
0!
#1205000
1.
b1111000 0
b100000 1
15
b1111000 3
06
b1110111 $
1!
#1210000
0!
#1215000
0.
b1111000 $
b1000 1
14
b1 7
1'
b1111000 *
1!
#1220000
0!
#1225000
b1000000 1
1)
b1111001 $
1!
#1230000
0!
#1235000
0.
b0 0
b11110 %
b1111010 $
0)
04
05
b1111000 2
16
b0 7
0'
1!
#1240000
0!
#1245000
1.
b1111100 0
b100000 1
15
b1111100 3
06
b1111011 $
1!
#1250000
0!
#1255000
0.
b1111100 $
b1000 1
14
b1 7
1'
b1111100 *
1!
#1260000
0!
#1265000
b1000000 1
1)
b1111101 $
1!
#1270000
0!
#1275000
0.
b0 0
b11111 %
b1111110 $
0)
04
05
b1111100 2
16
b0 7
0'
1!
#1280000
0!
#1285000
1.
b10000000 0
b100000 1
15
b10000000 3
06
b1111111 $
1!
#1290000
0!
#1295000
0.
b10000000 $
b1000 1
14
b1 7
1'
b10000000 *
1!
#1300000
0!
#1305000
b1000000 1
1)
b10000001 $
1!
#1310000
0!
#1315000
0.
b0 0
b100000 %
b10000010 $
0)
04
05
b10000000 2
16
b0 7
0'
1!
#1320000
0!
#1325000
1.
b10000100 0
b100000 1
15
b10000100 3
06
b10000011 $
1!
#1330000
0!
#1335000
0.
b10000100 $
b1000 1
14
b1 7
1'
b10000100 *
1!
#1340000
0!
#1345000
b1000000 1
1)
b10000101 $
1!
#1350000
0!
#1355000
0.
b0 0
b100001 %
b10000110 $
0)
04
05
b10000100 2
16
b0 7
0'
1!
#1360000
0!
#1365000
1.
b10001000 0
b100000 1
15
b10001000 3
06
b10000111 $
1!
#1370000
0!
#1375000
0.
b10001000 $
b1000 1
14
b1 7
1'
b10001000 *
1!
#1380000
0!
#1385000
b1000000 1
1)
b10001001 $
1!
#1390000
0!
#1395000
0.
b0 0
b100010 %
b10001010 $
0)
04
05
b10001000 2
16
b0 7
0'
1!
#1400000
0!
#1405000
1.
b10001100 0
b100000 1
15
b10001100 3
06
b10001011 $
1!
#1410000
0!
#1415000
0.
b10001100 $
b1000 1
14
b1 7
1'
b10001100 *
1!
#1420000
0!
#1425000
b1000000 1
1)
b10001101 $
1!
#1430000
0!
#1435000
0.
b0 0
b100011 %
b10001110 $
0)
04
05
b10001100 2
16
b0 7
0'
1!
#1440000
0!
#1445000
1.
b10010000 0
b100000 1
15
b10010000 3
06
b10001111 $
1!
#1450000
0!
#1455000
0.
b10010000 $
b1000 1
14
b1 7
1'
b10010000 *
1!
