test/IF/tb_picorv32_fetch.vcd
$date
	Thu Jan 29 17:01:03 2026
$end
$version
	Icarus Verilog
$end
$timescale
	1ps
$end
$scope module tb_picorv32_fetch $end
$var reg 1 ! clk $end
$upscope $end
$scope module tb_picorv32_fetch $end
$var reg 1 " resetn $end
$upscope $end
$scope module tb_picorv32_fetch $end
$var wire 1 # mem_valid $end
$upscope $end
$scope module tb_picorv32_fetch $end
$var wire 1 $ mem_instr $end
$upscope $end
$scope module tb_picorv32_fetch $end
$var wire 32 % mem_addr [31:0] $end
$upscope $end
$scope module tb_picorv32_fetch $end
$var reg 1 & mem_ready $end
$upscope $end
$scope module tb_picorv32_fetch $end
$var reg 32 ' mem_rdata [31:0] $end
$upscope $end
$scope module tb_picorv32_fetch $end
$scope module dut $end
$var reg 8 ( cpu_state [7:0] $end
$upscope $end
$upscope $end
$scope module tb_picorv32_fetch $end
$scope module dut $end
$var reg 32 ) reg_pc [31:0] $end
$upscope $end
$upscope $end
$scope module tb_picorv32_fetch $end
$scope module dut $end
$var reg 32 * reg_next_pc [31:0] $end
$upscope $end
$upscope $end
$scope module tb_picorv32_fetch $end
$scope module dut $end
$var reg 1 + mem_do_rinst $end
$upscope $end
$upscope $end
$scope module tb_picorv32_fetch $end
$scope module dut $end
$var reg 1 , mem_do_prefetch $end
$upscope $end
$upscope $end
$enddefinitions $end
$comment Show the parameter values. $end
$dumpall
$end
#0
$dumpvars
x,
x+
bx *
bx )
bx (
bx '
x&
bx %
x$
x#
0"
0!
$end
#5000
b10011 '
0&
0#
0+
0,
b1000000 (
b0 *
b0 )
1!
#10000
0!
#15000
1!
#20000
0!
1"
#25000
1+
1!
#30000
0!
#35000
1&
1$
1#
b0 %
1!
#40000
0!
#45000
0&
0#
0+
1!
#50000
0!
#55000
b100000 (
1,
b100 *
1!
#60000
0!
#65000
1&
1#
b100 %
b1000 (
1+
1!
#70000
0!
#75000
0&
0+
0,
b1000000 (
0#
1!
#80000
0!
#85000
b100000 (
1,
b1000 *
b100 )
1!
#90000
0!
#95000
1&
b1000 (
1+
1#
b1000 %
1!
#100000
0!
#105000
0&
0#
0+
0,
b1000000 (
1!
#110000
0!
#115000
b100000 (
1,
b1100 *
b1000 )
1!
#120000
0!
#125000
1&
1#
b1100 %
b1000 (
1+
1!
#130000
0!
#135000
0&
0+
0,
b1000000 (
0#
1!
#140000
0!
#145000
b100000 (
1,
b10000 *
b1100 )
1!
#150000
0!
#155000
1&
b1000 (
1+
1#
b10000 %
1!
#160000
0!
#165000
0&
0#
0+
0,
b1000000 (
1!
#170000
0!
#175000
b100000 (
1,
b10100 *
b10000 )
1!
#180000
0!
#185000
1&
1#
b10100 %
b1000 (
1+
1!
#190000
0!
#195000
0&
0+
0,
b1000000 (
0#
1!
#200000
0!
#205000
b100000 (
1,
b11000 *
b10100 )
1!
#210000
0!
#215000
1&
b1000 (
1+
1#
b11000 %
1!
#220000
0!
#225000
0&
0#
0+
0,
b1000000 (
1!
#230000
0!
#235000
b100000 (
1,
b11100 *
b11000 )
1!
#240000
0!
#245000
1&
1#
b11100 %
b1000 (
1+
1!
#250000
0!
#255000
0&
0+
0,
b1000000 (
0#
1!
#260000
0!
#265000
b100000 (
1,
b100000 *
b11100 )
1!
#270000
0!
#275000
1&
b1000 (
1+
1#
b100000 %
1!
#280000
0!
#285000
0&
0#
0+
0,
b1000000 (
1!
#290000
0!
#295000
b100000 (
1,
b100100 *
b100000 )
1!
#300000
0!
#305000
1&
1#
b100100 %
b1000 (
1+
1!
#310000
0!
#315000
0&
0+
0,
b1000000 (
0#
1!
#320000
0!
#325000
b100000 (
1,
b101000 *
b100100 )
1!
#330000
0!
#335000
1&
b1000 (
1+
1#
b101000 %
1!
#340000
0!
#345000
0&
0#
0+
0,
b1000000 (
1!
#350000
0!
#355000
b100000 (
1,
b101100 *
b101000 )
1!
#360000
0!
#365000
1&
1#
b101100 %
b1000 (
1+
1!
#370000
0!
#375000
0&
0+
0,
b1000000 (
0#
1!
#380000
0!
#385000
b100000 (
1,
b110000 *
b101100 )
1!
#390000
0!
#395000
1&
b1000 (
1+
1#
b110000 %
1!
#400000
0!
#405000
0&
0#
0+
0,
b1000000 (
1!
#410000
0!
#415000
b100000 (
1,
b110100 *
b110000 )
1!
#420000
0!
#425000
1&
1#
b110100 %
b1000 (
1+
1!
#430000
0!
#435000
0&
0+
0,
b1000000 (
0#
1!
#440000
0!
#445000
b100000 (
1,
b111000 *
b110100 )
1!
#450000
0!
#455000
1&
b1000 (
1+
1#
b111000 %
1!
#460000
0!
#465000
0&
0#
0+
0,
b1000000 (
1!
#470000
0!
#475000
b100000 (
1,
b111100 *
b111000 )
1!
#480000
0!
#485000
1&
1#
b111100 %
b1000 (
1+
1!
#490000
0!
#495000
0&
0+
0,
b1000000 (
0#
1!
#500000
0!
#505000
b100000 (
1,
b1000000 *
b111100 )
1!
#510000
0!
#515000
1&
b1000 (
1+
1#
b1000000 %
1!
